1:ItNr	2:Metric	2:Metric0	2:Metric1	3a:Time	3b:StepSize	4:||Gradient0||	4:||Gradient1||	4:||Gradient||	Time0[ms]	Time1[ms]	Time[ms]
0	-0.593673	-0.598077	0.000000	0.000000	156.646147	0.005258	0.000000	0.005691	2.4	5.8	100.0
1	-0.603345	-0.608490	0.000001	0.000000	156.646147	0.004168	0.000000	0.005594	2.2	5.4	8.0
2	-0.606491	-0.611082	0.000000	0.233114	154.926360	0.006728	0.000000	0.007298	2.3	6.2	8.8
3	-0.595315	-0.600843	0.000001	0.227673	154.966073	0.004710	0.000000	0.006417	2.2	5.7	8.3
4	-0.590606	-0.595353	0.000000	0.525156	152.824400	0.003332	0.000000	0.004814	2.1	6.1	8.5
5	-0.580113	-0.584919	0.000000	0.601151	152.286753	0.004376	0.000000	0.005671	2.3	6.5	9.2
6	-0.596196	-0.601256	0.000001	0.663535	151.848212	0.003805	0.000000	0.005598	2.3	8.4	11.2
7	-0.591673	-0.596149	0.000000	0.789811	150.968222	0.004492	0.000000	0.005314	3.8	9.7	14.0
8	-0.610424	-0.614950	0.000000	0.937351	149.952883	0.005328	0.000000	0.006165	3.8	9.9	14.0
9	-0.578184	-0.582778	0.000000	0.924593	150.040144	0.004402	0.000000	0.005692	3.4	9.4	13.2
10	-0.594396	-0.598887	0.000000	1.138188	148.592517	0.004632	0.000000	0.005556	3.2	10.1	13.7
11	-0.588392	-0.592806	0.000000	1.171374	148.370103	0.004279	0.000000	0.005074	3.7	10.1	14.2
12	-0.595520	-0.600188	0.000000	1.189113	148.251489	0.004115	0.000000	0.005066	3.3	6.7	10.4
13	-0.614298	-0.618679	0.000000	1.344990	147.217298	0.004787	0.000000	0.005809	3.5	10.0	13.9
14	-0.597196	-0.601727	0.000000	1.403854	146.830499	0.004798	0.000000	0.005562	3.9	10.4	14.7
15	-0.574995	-0.579260	0.000000	1.493853	146.243025	0.004183	0.000000	0.004985	4.7	10.0	15.6
16	-0.584543	-0.589136	0.000000	1.603854	145.531335	0.004158	0.000000	0.005209	3.4	10.0	14.1
17	-0.581908	-0.586237	0.000000	1.704073	144.888938	0.005092	0.000000	0.005724	3.7	5.6	9.6
18	-0.614847	-0.619725	0.000000	1.792890	144.324355	0.004111	0.000000	0.005013	2.3	6.1	8.8
19	-0.597737	-0.602142	0.000000	1.877205	143.792440	0.004233	0.000000	0.005380	2.1	5.7	8.2
20	-0.621246	-0.625808	0.000000	1.929627	143.463700	0.003903	0.000000	0.005014	2.2	6.1	8.6
21	-0.579058	-0.583575	0.000000	2.042839	142.758846	0.003128	0.000000	0.004777	2.1	5.8	8.3
22	-0.601708	-0.605972	0.000000	2.078706	142.536984	0.004707	0.000000	0.005667	2.2	5.7	8.3
23	-0.593562	-0.598067	0.000000	2.144661	142.130799	0.004383	0.000000	0.005708	2.1	5.6	8.0
24	-0.571280	-0.575603	0.000000	2.315592	141.088806	0.004127	0.000000	0.005103	2.2	6.3	8.9
25	-0.576613	-0.581035	0.000000	2.405931	140.544251	0.003385	0.000000	0.004679	2.4	5.7	8.4
26	-0.608204	-0.612093	0.000000	2.465638	140.186644	0.003525	0.000000	0.004853	3.2	5.5	9.1
27	-0.584821	-0.588764	0.000000	2.479536	140.103669	0.004198	0.000000	0.005051	2.2	5.8	8.3
28	-0.600918	-0.605200	0.000000	2.567206	139.582483	0.004476	0.000000	0.005759	2.2	6.4	8.9
29	-0.581290	-0.585436	0.000000	2.708627	138.749880	0.006418	0.000000	0.007046	2.3	6.3	8.9
30	-0.578828	-0.583732	0.000000	2.774522	138.365310	0.003790	0.000000	0.005337	2.1	5.6	8.0
31	-0.582889	-0.587286	0.000000	2.932356	137.452790	0.005134	0.000000	0.006112	2.1	5.9	8.4
32	-0.611389	-0.616025	0.000000	2.985702	137.147087	0.003741	0.000000	0.005013	2.2	5.6	8.2
33	-0.593975	-0.598528	0.000000	3.150784	136.209622	0.004288	0.000000	0.005295	2.1	6.3	8.7
34	-0.583124	-0.587376	0.000000	3.237719	135.721069	0.005023	0.000000	0.005650	2.6	5.5	8.6
35	-0.579928	-0.584407	0.000000	3.298725	135.380316	0.003830	0.000000	0.005016	2.4	5.8	8.5
36	-0.574415	-0.578721	0.000000	3.436151	134.618955	0.005290	0.000000	0.005579	2.2	6.8	9.4
37	-0.596046	-0.600653	0.000000	3.390422	134.871350	0.005675	0.000000	0.006705	2.4	5.5	8.2
38	-0.588285	-0.593376	0.000001	3.505767	134.236528	0.005150	0.000000	0.005757	2.2	6.7	9.3
39	-0.605159	-0.609734	0.000000	3.720649	133.069688	0.005544	0.000000	0.005750	2.2	5.5	8.0
40	-0.588491	-0.593953	0.000001	3.781118	132.744984	0.003767	0.000000	0.005361	2.3	6.3	8.9
41	-0.589760	-0.594378	0.000000	3.837158	132.445472	0.004656	0.000000	0.005824	2.1	5.7	8.1
42	-0.600501	-0.605240	0.000000	3.822003	132.526333	0.004135	0.000000	0.004893	2.8	5.9	9.0
43	-0.608582	-0.613242	0.000000	3.898522	132.119052	0.004251	0.000000	0.005364	2.2	5.8	8.4
44	-0.600565	-0.605018	0.000000	3.892107	132.153102	0.005021	0.000000	0.006006	2.2	5.7	8.3
45	-0.606071	-0.610839	0.000000	4.013628	131.511075	0.005351	0.000000	0.006344	2.1	6.3	8.8
46	-0.589397	-0.594391	0.000000	4.077638	131.175398	0.005951	0.000000	0.007189	2.1	5.8	8.3
47	-0.603168	-0.608257	0.000001	4.371008	129.658588	0.005327	0.000000	0.006104	2.2	6.0	8.6
48	-0.568327	-0.573558	0.000001	4.526116	128.870723	0.004800	0.000000	0.005952	2.3	5.6	8.2
49	-0.598954	-0.604076	0.000001	4.707165	127.963122	0.004739	0.000000	0.005897	2.2	5.7	8.2
50	-0.600874	-0.605580	0.000000	4.803661	127.484586	0.004252	0.000000	0.005693	2.2	5.8	8.4
51	-0.586194	-0.591000	0.000000	4.828411	127.362424	0.004317	0.000000	0.005310	2.0	6.9	9.3
52	-0.569014	-0.574274	0.000001	4.823050	127.388868	0.005505	0.000000	0.006843	3.1	6.7	10.2
53	-0.586094	-0.590828	0.000000	5.013782	126.454857	0.004873	0.000000	0.006220	2.2	5.7	8.3
54	-0.592433	-0.597066	0.000000	5.044442	126.305995	0.004890	0.000000	0.006166	2.4	6.5	9.3
55	-0.616922	-0.621369	0.000000	5.149674	125.797708	0.005277	0.000000	0.006373	2.1	5.8	8.3
56	-0.577118	-0.581381	0.000000	5.313381	125.015069	0.003389	0.000000	0.004512	2.2	6.3	8.8
57	-0.599175	-0.603414	0.000000	5.365198	124.769367	0.004648	0.000000	0.005838	2.2	5.8	8.3
58	-0.608437	-0.612989	0.000000	5.426221	124.481252	0.004699	0.000000	0.005970	2.2	5.6	8.1
59	-0.582218	-0.586583	0.000000	5.592557	123.702622	0.004195	0.000000	0.005587	2.1	6.6	9.1
60	-0.610924	-0.615306	0.000000	5.653140	123.421446	0.004685	0.000000	0.005698	2.1	5.7	8.4
61	-0.547748	-0.552143	0.000000	5.726920	123.080739	0.004183	0.000000	0.005281	2.6	6.1	9.0
62	-0.590392	-0.594279	0.000000	5.780904	122.832638	0.005509	0.000000	0.006225	2.5	5.6	8.5
63	-0.611320	-0.615517	0.000000	5.899519	122.291000	0.004027	0.000000	0.005173	2.4	7.6	10.4
64	-0.598548	-0.602428	0.000000	5.998536	121.842501	0.004947	0.000000	0.005578	2.5	5.5	8.3
65	-0.593809	-0.598025	0.000000	6.074270	121.501675	0.005865	0.000000	0.006207	4.2	5.8	10.4
66	-0.604905	-0.609127	0.000000	6.083565	121.459973	0.004255	0.000000	0.005403	2.3	6.3	9.2
67	-0.593616	-0.597868	0.000000	6.240142	120.761819	0.006681	0.000000	0.007201	2.3	5.5	8.2
68	-0.612108	-0.616974	0.000000	6.294883	120.519625	0.006076	0.000000	0.006384	5.9	8.0	14.3
69	-0.601185	-0.606204	0.000001	6.349445	120.279190	0.006960	0.000000	0.008183	2.3	7.3	10.0
70	-0.576326	-0.581731	0.000001	6.477575	119.718321	0.005041	0.000000	0.006198	2.2	5.9	8.4
71	-0.610025	-0.614907	0.000000	6.668661	118.891515	0.005210	0.000000	0.006254	2.2	7.0	9.5
72	-0.595240	-0.599985	0.000000	6.718537	118.677586	0.004178	0.000000	0.005174	2.2	6.2	8.7
73	-0.589790	-0.594413	0.000000	6.840034	118.159664	0.004535	0.000000	0.005573	2.1	5.6	8.0
74	-0.618861	-0.623318	0.000000	6.869268	118.035721	0.004029	0.000000	0.004646	2.4	9.8	12.5
75	-0.592473	-0.597227	0.000000	6.978326	117.575624	0.003848	0.000000	0.004531	2.4	6.0	8.8
76	-0.603492	-0.607979	0.000000	7.022071	117.392074	0.003594	0.000000	0.004786	2.2	5.8	8.4
77	-0.596009	-0.600630	0.000000	7.055300	117.253037	0.006144	0.000000	0.006969	2.5	6.2	9.1
78	-0.596323	-0.600834	0.000000	7.150744	116.855494	0.005021	0.000000	0.005802	2.2	5.6	8.0
79	-0.624774	-0.629252	0.000000	7.224841	116.548718	0.005870	0.000000	0.006177	2.3	6.0	8.7
80	-0.620237	-0.625123	0.000000	7.254636	116.425818	0.005475	0.000000	0.006030	2.2	5.6	8.1
81	-0.616580	-0.621129	0.000000	7.331221	116.111093	0.004218	0.000000	0.005538	2.1	6.7	9.2
82	-0.594013	-0.598643	0.000000	7.509620	115.384530	0.004654	0.000000	0.005402	3.5	8.0	11.9
83	-0.584655	-0.589228	0.000000	7.510451	115.381165	0.004385	0.000000	0.005385	2.1	5.5	8.0
84	-0.593974	-0.598341	0.000000	7.622383	114.929951	0.004297	0.000000	0.004982	2.2	6.2	8.7
85	-0.594020	-0.598629	0.000000	7.641636	114.852694	0.004811	0.000000	0.005738	2.2	5.4	8.0
86	-0.618874	-0.623074	0.000000	7.797388	114.231510	0.005559	0.000000	0.006206	2.2	6.8	9.4
87	-0.580500	-0.584790	0.000000	7.746762	114.432681	0.005065	0.000000	0.005544	2.2	5.8	8.3
88	-0.607281	-0.612171	0.000000	7.892083	113.857113	0.004817	0.000000	0.005198	2.7	5.5	8.6
89	-0.629988	-0.634419	0.000000	7.886535	113.878978	0.004377	0.000000	0.005226	2.1	5.7	8.1
90	-0.600392	-0.604688	0.000000	7.960915	113.586503	0.004147	0.000000	0.005444	2.4	5.6	8.5
91	-0.612906	-0.617500	0.000000	7.967641	113.560131	0.004530	0.000000	0.005905	2.2	6.1	8.6
92	-0.592932	-0.597238	0.000000	8.008416	113.400508	0.005662	0.000000	0.006354	2.1	5.5	8.0
93	-0.595464	-0.600110	0.000000	8.100753	113.040687	0.003737	0.000000	0.004754	2.2	7.9	10.5
94	-0.598197	-0.602539	0.000000	8.197413	112.666458	0.005034	0.000000	0.006276	4.0	7.9	12.5
95	-0.580414	-0.584684	0.000000	8.276910	112.360531	0.004514	0.000000	0.005490	2.4	5.8	8.5
96	-0.623516	-0.627796	0.000000	8.385242	111.946299	0.006058	0.000000	0.007101	2.1	6.2	8.7
97	-0.581255	-0.585552	0.000000	8.392256	111.919586	0.005442	0.000000	0.005879	2.3	5.6	8.3
98	-0.592122	-0.596706	0.000000	8.511585	111.467044	0.003897	0.000000	0.004911	3.4	6.9	10.7
99	-0.605175	-0.609620	0.000000	8.560122	111.284017	0.004172	0.000000	0.005249	2.2	6.4	8.9
100	-0.601363	-0.605606	0.000000	8.650019	110.946609	0.003623	0.000000	0.004867	2.2	5.8	8.4
101	-0.621742	-0.625985	0.000000	8.703410	110.747187	0.004422	0.000000	0.005434	2.1	5.7	8.2
102	-0.617966	-0.622160	0.000000	8.731772	110.641543	0.005178	0.000000	0.006120	2.4	5.6	8.4
103	-0.598227	-0.602546	0.000000	8.861825	110.159681	0.003691	0.000000	0.004976	3.2	5.6	9.2
104	-0.575590	-0.579650	0.000000	8.930150	109.908207	0.004895	0.000000	0.005627	2.3	5.7	8.3
105	-0.587763	-0.591670	0.000000	9.011449	109.610471	0.003985	0.000000	0.005017	3.0	6.6	9.9
106	-0.564268	-0.568361	0.000000	9.060009	109.433403	0.004657	0.000000	0.005653	2.8	6.9	10.1
107	-0.571367	-0.575418	0.000000	9.110551	109.249713	0.004633	0.000000	0.005088	2.5	5.6	8.4
108	-0.567483	-0.571388	0.000000	9.142313	109.134594	0.005214	0.000000	0.005636	4.6	8.1	13.1
109	-0.574138	-0.578468	0.000000	9.153826	109.092926	0.003983	0.000000	0.004830	2.4	7.7	10.5
110	-0.602919	-0.606897	0.000000	9.218608	108.859054	0.004215	0.000000	0.004895	2.7	6.2	9.2
111	-0.603491	-0.607730	0.000000	9.233760	108.804500	0.004090	0.000000	0.004819	2.4	6.0	8.7
112	-0.577439	-0.581597	0.000000	9.253603	108.733135	0.003999	0.000000	0.005144	2.2	6.7	9.3
113	-0.604285	-0.608358	0.000000	9.357070	108.362535	0.005137	0.000000	0.005978	2.2	5.5	8.1
114	-0.583765	-0.587768	0.000000	9.390774	108.242360	0.005906	0.000000	0.006044	2.1	5.9	8.3
115	-0.606398	-0.610709	0.000000	9.398564	108.214620	0.005043	0.000000	0.005687	2.3	5.7	8.3
116	-0.603400	-0.608160	0.000000	9.504826	107.837662	0.003799	0.000000	0.004977	2.3	6.5	9.1
117	-0.592450	-0.596926	0.000000	9.630599	107.394865	0.006848	0.000000	0.006897	2.4	5.5	8.2
118	-0.589097	-0.593931	0.000000	9.645796	107.341611	0.005354	0.000000	0.006879	2.4	6.5	9.2
119	-0.588795	-0.593274	0.000000	9.985458	106.164933	0.003946	0.000000	0.005063	2.2	5.7	8.3
120	-0.600585	-0.604978	0.000000	10.050628	105.942111	0.006267	0.000000	0.006958	3.1	5.8	9.2
121	-0.566610	-0.570929	0.000000	10.113631	105.727585	0.004586	0.000000	0.005466	2.2	7.1	9.7
122	-0.578245	-0.582600	0.000000	10.232633	105.324745	0.004135	0.000000	0.004935	2.4	5.5	8.4
123	-0.604000	-0.608512	0.000000	10.235901	105.313724	0.003445	0.000000	0.004659	3.2	6.6	10.2
124	-0.572961	-0.577067	0.000000	10.275857	105.179183	0.003710	0.000000	0.004582	2.2	6.4	9.0
125	-0.610485	-0.614971	0.000000	10.340987	104.960610	0.004958	0.000000	0.006392	2.2	5.6	8.2
126	-0.586515	-0.590802	0.000000	10.423189	104.686036	0.004861	0.000000	0.005630	2.1	5.7	8.1
127	-0.600420	-0.604621	0.000000	10.497716	104.438338	0.004001	0.000000	0.005361	3.0	9.8	13.2
128	-0.637469	-0.641737	0.000000	10.600359	104.099104	0.004628	0.000000	0.005161	3.4	9.9	13.7
129	-0.604395	-0.608430	0.000000	10.673776	103.857814	0.003344	0.000000	0.004446	3.1	10.2	13.7
130	-0.596134	-0.600087	0.000000	10.707195	103.748349	0.003960	0.000000	0.004951	3.3	10.0	13.8
131	-0.592299	-0.596392	0.000000	10.709740	103.740020	0.005360	0.000000	0.005998	3.3	10.5	14.2
132	-0.620700	-0.624773	0.000000	10.792625	103.469566	0.004497	0.000000	0.005194	3.4	10.0	13.8
133	-0.595009	-0.599224	0.000000	10.895538	103.135715	0.004748	0.000000	0.005481	3.5	8.0	11.9
134	-0.620338	-0.624579	0.000000	11.038780	102.674605	0.005391	0.000000	0.005978	2.9	10.4	13.7
135	-0.592254	-0.596156	0.000000	11.173295	102.245328	0.003473	0.000000	0.004275	3.4	10.7	14.4
136	-0.566205	-0.570260	0.000000	11.221946	102.090951	0.005803	0.000000	0.006389	2.7	9.9	13.0
137	-0.598071	-0.602005	0.000000	11.202472	102.152689	0.003154	0.000000	0.004329	4.2	8.1	12.6
138	-0.602153	-0.605880	0.000000	11.312126	101.806026	0.004561	0.000000	0.005239	2.2	6.0	8.5
139	-0.598862	-0.603054	0.000000	11.319855	101.781679	0.005789	0.000000	0.006333	2.4	5.6	8.4
140	-0.609879	-0.614138	0.000000	11.303453	101.833358	0.004594	0.000000	0.005174	2.3	7.2	9.8
141	-0.582995	-0.587153	0.000000	11.353684	101.675257	0.004275	0.000000	0.005199	2.2	6.6	9.3
142	-0.563803	-0.567987	0.000000	11.456129	101.354326	0.004458	0.000000	0.005177	4.1	17.6	22.1
143	-0.575423	-0.579489	0.000000	11.503568	101.206399	0.004153	0.000000	0.004554	5.1	14.9	20.5
144	-0.576729	-0.580895	0.000000	11.502757	101.208925	0.005347	0.000000	0.006072	2.6	6.5	9.5
145	-0.630200	-0.634259	0.000000	11.514616	101.172011	0.005209	0.000000	0.005926	2.2	6.6	9.2
146	-0.575172	-0.579593	0.000000	11.561959	101.024913	0.003379	0.000000	0.005014	2.3	6.6	9.2
147	-0.596129	-0.600306	0.000000	11.668675	100.694905	0.005516	0.000000	0.006109	2.2	6.1	8.6
148	-0.605752	-0.610268	0.000000	11.720050	100.536799	0.004746	0.000000	0.005343	2.4	6.1	8.9
149	-0.591749	-0.595683	0.000000	11.788926	100.325612	0.004397	0.000000	0.004982	3.2	5.6	9.2
150	-0.584732	-0.589112	0.000000	11.852258	100.132208	0.005811	0.000000	0.006922	2.2	6.0	8.7
151	-0.591587	-0.595736	0.000000	11.937847	99.872015	0.005335	0.000000	0.006325	2.4	5.5	8.3
152	-0.618252	-0.622501	0.000000	11.890789	100.014903	0.004436	0.000000	0.005265	3.4	6.5	10.3
153	-0.613624	-0.617622	0.000000	12.072249	99.466146	0.005591	0.000000	0.005970	2.2	5.8	8.3
154	-0.599668	-0.603917	0.000000	12.087617	99.419945	0.003804	0.000000	0.004758	2.4	5.8	8.6
155	-0.590409	-0.594650	0.000000	12.190551	99.111614	0.004161	0.000000	0.005627	2.4	6.5	9.2
156	-0.581005	-0.584950	0.000000	12.293645	98.804715	0.005524	0.000000	0.006085	2.3	5.5	8.2
157	-0.603771	-0.607835	0.000000	12.359980	98.608246	0.004644	0.000000	0.005253	2.3	7.4	10.0
158	-0.602692	-0.606663	0.000000	12.430152	98.401259	0.004348	0.000000	0.005201	2.3	6.0	8.6
159	-0.587835	-0.592104	0.000000	12.504335	98.183387	0.005278	0.000000	0.006117	2.3	6.9	9.6
160	-0.605244	-0.609540	0.000000	12.523622	98.126900	0.002924	0.000000	0.004682	2.2	6.0	8.6
161	-0.608866	-0.612777	0.000000	12.603398	97.893942	0.005319	0.000000	0.006263	4.4	5.5	10.3
162	-0.632182	-0.636053	0.000000	12.619007	97.848490	0.004675	0.000000	0.005192	2.2	6.6	9.2
163	-0.606978	-0.611133	0.000000	12.687165	97.650517	0.005201	0.000000	0.005956	2.2	5.7	8.2
164	-0.626206	-0.630404	0.000000	12.809076	97.298402	0.003026	0.000000	0.004436	2.2	6.7	9.3
165	-0.614735	-0.618553	0.000000	12.914729	96.995293	0.004040	0.000000	0.005049	2.3	6.5	9.1
166	-0.584961	-0.588781	0.000000	12.969913	96.837725	0.003386	0.000000	0.004016	2.8	6.0	9.2
167	-0.598755	-0.602756	0.000000	12.969002	96.840322	0.004128	0.000000	0.004763	2.1	9.6	12.1
168	-0.557632	-0.561548	0.000000	13.007978	96.729335	0.004115	0.000000	0.005133	3.0	5.5	8.9
169	-0.592551	-0.596215	0.000000	13.027123	96.674910	0.004360	0.000000	0.005183	3.2	5.6	9.2
170	-0.575284	-0.579094	0.000000	13.035909	96.649957	0.003591	0.000000	0.004437	2.2	5.9	8.5
171	-0.595731	-0.599209	0.000000	13.057778	96.587896	0.004682	0.000000	0.005402	2.2	5.8	8.3
172	-0.588905	-0.592559	0.000000	13.059686	96.582485	0.004313	0.000000	0.005043	2.1	6.7	9.2
173	-0.567517	-0.571300	0.000000	13.113832	96.429187	0.004409	0.000000	0.004832	2.1	5.8	8.2
174	-0.588544	-0.592640	0.000000	13.136841	96.364192	0.004521	0.000000	0.005518	2.1	6.6	9.0
175	-0.590913	-0.594653	0.000000	13.235419	96.086719	0.006135	0.000000	0.006412	2.1	5.9	8.4
176	-0.585452	-0.589590	0.000000	13.416917	95.580005	0.005151	0.000000	0.005105	2.6	5.7	8.6
177	-0.593217	-0.597542	0.000000	13.432775	95.535986	0.005156	0.000000	0.006533	2.1	5.8	8.3
178	-0.610079	-0.614092	0.000000	13.558717	95.187824	0.005155	0.000000	0.005438	2.7	5.6	8.7
179	-0.616823	-0.621040	0.000000	13.605657	95.058709	0.004984	0.000000	0.005830	2.3	6.1	8.7
180	-0.583603	-0.587619	0.000000	13.673119	94.873756	0.005580	0.000000	0.005853	2.2	5.5	8.1
181	-0.579768	-0.583903	0.000000	13.693332	94.818484	0.004366	0.000000	0.004888	2.3	6.5	9.1
182	-0.593126	-0.597383	0.000000	13.673678	94.872228	0.004208	0.000000	0.004946	2.2	5.7	8.4
183	-0.603319	-0.607189	0.000000	13.674781	94.869211	0.005023	0.000000	0.005141	4.3	8.6	13.3
184	-0.591692	-0.596500	0.000000	13.721873	94.740542	0.003669	0.000000	0.005230	2.2	8.6	11.0
185	-0.617372	-0.621412	0.000000	13.821032	94.470752	0.006129	0.000000	0.006440	2.2	5.8	8.3
186	-0.626089	-0.630405	0.000000	13.842876	94.411525	0.004972	0.000000	0.006101	2.8	5.4	8.6
187	-0.595861	-0.599766	0.000000	13.968552	94.072213	0.003683	0.000000	0.004465	2.1	5.7	8.3
188	-0.617083	-0.621334	0.000000	14.055210	93.839663	0.007494	0.000000	0.007853	2.3	5.5	8.1
189	-0.622101	-0.626480	0.000000	14.144379	93.601570	0.005213	0.000000	0.005689	2.2	6.2	8.7
190	-0.607289	-0.611880	0.000000	14.161210	93.556766	0.004863	0.000000	0.005995	2.2	5.8	8.3
191	-0.587199	-0.591247	0.000000	14.286509	93.224555	0.004162	0.000000	0.004851	2.3	6.3	8.9
192	-0.600712	-0.605071	0.000000	14.325109	93.122688	0.003642	0.000000	0.004609	2.1	5.7	8.0
193	-0.585799	-0.590016	0.000000	14.376013	92.988689	0.005366	0.000000	0.005865	2.1	6.4	8.8
194	-0.603977	-0.608045	0.000000	14.375289	92.990593	0.005507	0.000000	0.005880	2.2	5.6	8.2
195	-0.598128	-0.602632	0.000000	14.443562	92.811471	0.004848	0.000000	0.006047	2.1	6.3	8.8
196	-0.594684	-0.598755	0.000000	14.513165	92.629566	0.004899	0.000000	0.005610	2.1	5.5	7.9
197	-0.614033	-0.618173	0.000000	14.488714	92.693388	0.004728	0.000000	0.005354	3.0	5.5	8.8
198	-0.587206	-0.591110	0.000000	14.510956	92.635330	0.005245	0.000000	0.005548	2.3	6.4	9.0
199	-0.602050	-0.606035	0.000000	14.533341	92.576972	0.005129	0.000000	0.005729	2.2	5.6	8.2
200	-0.624200	-0.628426	0.000000	14.568045	92.486644	0.006097	0.000000	0.006465	2.2	6.1	8.6
201	-0.594493	-0.598865	0.000000	14.750778	92.013916	0.004720	0.000000	0.005297	2.2	5.9	8.6
202	-0.607752	-0.611946	0.000000	14.825477	91.822059	0.004194	0.000000	0.005203	2.2	6.3	8.8
203	-0.597866	-0.602149	0.000000	14.811491	91.857921	0.005113	0.000000	0.005759	2.1	5.8	8.3
204	-0.581514	-0.585640	0.000000	14.814085	91.851267	0.003414	0.000000	0.004151	2.1	6.2	8.7
205	-0.587085	-0.591089	0.000000	14.819396	91.837649	0.005209	0.000000	0.005743	2.2	5.8	8.3
206	-0.585621	-0.589868	0.000000	14.827571	91.816693	0.003846	0.000000	0.004896	3.1	5.8	9.3
207	-0.580848	-0.584947	0.000000	14.947471	91.510445	0.005343	0.000000	0.005341	2.2	6.3	8.9
208	-0.615761	-0.620092	0.000000	15.008081	91.356412	0.004717	0.000000	0.005953	2.1	5.6	8.0
209	-0.595490	-0.599719	0.000000	15.074599	91.187959	0.004692	0.000000	0.005808	2.7	6.4	9.5
210	-0.621974	-0.626057	0.000000	15.331722	90.542614	0.004039	0.000000	0.005291	2.4	5.7	8.5
211	-0.583639	-0.587562	0.000000	15.427835	90.303721	0.003999	0.000000	0.005019	2.7	5.5	8.6
212	-0.610272	-0.614040	0.000000	15.527230	90.057995	0.004406	0.000000	0.004669	2.2	5.9	8.4
213	-0.589417	-0.593324	0.000000	15.537634	90.032350	0.004182	0.000000	0.004866	2.3	5.8	8.4
214	-0.587579	-0.591402	0.000000	15.619189	89.831840	0.004015	0.000000	0.004531	2.2	6.3	8.9
215	-0.573959	-0.577755	0.000000	15.659078	89.734093	0.004137	0.000000	0.004885	2.1	5.8	8.3
216	-0.612785	-0.616975	0.000000	15.673958	89.697684	0.003392	0.000000	0.004604	2.1	6.4	8.9
217	-0.610868	-0.614826	0.000000	15.733935	89.551232	0.004572	0.000000	0.005049	2.1	5.7	8.2
218	-0.596328	-0.600400	0.000000	15.814740	89.354673	0.004804	0.000000	0.005561	2.2	6.3	8.9
219	-0.607149	-0.611297	0.000000	15.841200	89.290498	0.004582	0.000000	0.005254	2.2	5.7	8.2
220	-0.589697	-0.593596	0.000000	15.857088	89.252008	0.003503	0.000000	0.004565	2.7	6.1	9.3
221	-0.603245	-0.606851	0.000000	15.915802	89.110053	0.003866	0.000000	0.004502	2.1	6.5	9.0
222	-0.600379	-0.604262	0.000000	15.914291	89.113700	0.003943	0.000000	0.004631	2.2	5.6	8.1
223	-0.588906	-0.592971	0.000000	15.961504	88.999872	0.003898	0.000000	0.004844	2.2	6.4	9.0
224	-0.603911	-0.607820	0.000000	15.990734	88.929543	0.004941	0.000000	0.005668	2.8	6.4	9.5
225	-0.613999	-0.617720	0.000000	16.032518	88.829204	0.004867	0.000000	0.005616	2.2	6.1	8.7
226	-0.586822	-0.590680	0.000000	16.069497	88.740592	0.003907	0.000000	0.004969	2.2	5.5	8.0
227	-0.611117	-0.614702	0.000000	16.158049	88.529111	0.006407	0.000000	0.007004	3.6	5.6	9.5
228	-0.570013	-0.573899	0.000000	16.208806	88.408350	0.004706	0.000000	0.005247	2.2	7.1	9.6
229	-0.609030	-0.612633	0.000000	16.205916	88.415216	0.004238	0.000000	0.005011	2.2	6.3	8.9
230	-0.611870	-0.615613	0.000000	16.255814	88.296798	0.003380	0.000000	0.004285	2.2	6.5	9.1
231	-0.601715	-0.605355	0.000000	16.316215	88.153879	0.004666	0.000000	0.005535	2.3	6.4	9.0
232	-0.595093	-0.598913	0.000000	16.315252	88.156154	0.005654	0.000000	0.006114	2.8	6.2	9.4
233	-0.599215	-0.602781	0.000000	16.363671	88.041914	0.005185	0.000000	0.005637	2.7	6.9	10.0
234	-0.597731	-0.601535	0.000000	16.420096	87.909157	0.004287	0.000000	0.004743	2.3	6.3	9.0
235	-0.598927	-0.602665	0.000000	16.440808	87.860525	0.004264	0.000000	0.004626	2.5	6.2	9.2
236	-0.612437	-0.616366	0.000000	16.469858	87.792408	0.004516	0.000000	0.005111	2.4	6.3	9.1
237	-0.602309	-0.606318	0.000000	16.525201	87.662929	0.004773	0.000000	0.005807	2.8	6.1	9.3
238	-0.614766	-0.618446	0.000000	16.579276	87.536786	0.004840	0.000000	0.005313	2.1	7.3	9.7
239	-0.616518	-0.620511	0.000000	16.701136	87.253846	0.004842	0.000000	0.005472	2.1	6.1	8.6
240	-0.588409	-0.592365	0.000000	16.671293	87.322966	0.004776	0.000000	0.005445	3.5	6.0	9.8
241	-0.580539	-0.584382	0.000000	16.765525	87.105080	0.005376	0.000000	0.006086	2.1	6.4	8.9
242	-0.621433	-0.625545	0.000000	16.772517	87.088956	0.004129	0.000000	0.005089	2.1	6.1	8.5
243	-0.589877	-0.593556	0.000000	16.851444	86.907360	0.004231	0.000000	0.005177	2.1	7.0	9.5
244	-0.607448	-0.611076	0.000000	16.932648	86.721315	0.004001	0.000000	0.004603	2.1	6.2	8.6
245	-0.604960	-0.608775	0.000000	16.973494	86.628033	0.003817	0.000000	0.004662	3.2	11.4	15.0
246	-0.606753	-0.610243	0.000000	17.025563	86.509411	0.006804	0.000000	0.007262	3.6	9.4	13.4
247	-0.605383	-0.609167	0.000000	17.169375	86.183469	0.004469	0.000000	0.005294	3.2	9.9	13.5
248	-0.601772	-0.605449	0.000000	17.237075	86.030876	0.005279	0.000000	0.005959	3.4	10.9	14.7
249	-0.590535	-0.594315	0.000000	17.271908	85.952576	0.003295	0.000000	0.004317	3.2	10.0	13.6
250	-0.612413	-0.615916	0.000000	17.360013	85.755160	0.003751	0.000000	0.004227	3.4	10.2	14.0
251	-0.608211	-0.611756	0.000000	17.399197	85.667654	0.003900	0.000000	0.004939	3.2	8.7	12.3
252	-0.580320	-0.583847	0.000000	17.442441	85.571286	0.005163	0.000000	0.005546	3.3	10.0	13.7
253	-0.601549	-0.605253	0.000000	17.429060	85.601082	0.003720	0.000000	0.004794	4.7	10.2	15.3
254	-0.587467	-0.591076	0.000000	17.543023	85.347979	0.003961	0.000000	0.004770	2.9	10.3	13.7
255	-0.583822	-0.587511	0.000000	17.575286	85.276596	0.005181	0.000000	0.005516	3.8	8.4	12.7
