1:ItNr	2:Metric	3a:Time	3b:StepSize	4:||Gradient||	Time[ms]
0	-0.574695	0.000000	25.980208	0.005637	49.6
1	-0.578123	0.000000	25.980208	0.014326	1.6
2	-0.569236	0.999951	24.799345	0.014384	1.8
3	-0.555507	0.354221	25.549252	0.007715	1.6
4	-0.587408	0.000000	25.980208	0.009229	1.8
5	-0.581003	0.984108	24.817216	0.005644	1.5
6	-0.586701	1.851433	23.875280	0.006246	1.8
7	-0.575769	2.602319	23.115710	0.012187	1.8
8	-0.583166	1.957650	23.764818	0.006555	1.6
9	-0.555533	2.957300	22.773199	0.005997	1.7
10	-0.604509	2.508967	23.207501	0.008580	1.9
11	-0.566621	1.870544	23.855330	0.013098	1.7
12	-0.600727	1.224814	24.548433	0.007872	1.6
13	-0.574619	0.790896	25.037262	0.008385	1.7
14	-0.557942	0.150604	25.795214	0.007458	2.1
15	-0.576514	0.000000	25.980208	0.014576	1.5
16	-0.598374	0.000000	25.980208	0.006198	1.8
17	-0.593275	0.000000	25.980208	0.004283	1.6
18	-0.573153	0.000000	25.980208	0.007818	2.2
19	-0.598293	0.959789	24.844700	0.011138	1.8
20	-0.569931	0.321397	25.588585	0.012855	1.5
21	-0.599745	1.321397	24.442215	0.006167	1.9
22	-0.604403	0.676338	25.169582	0.004125	2.1
23	-0.593044	0.228683	25.700340	0.005087	1.6
24	-0.580769	0.583617	25.277708	0.004983	1.5
25	-0.601378	0.030793	25.942168	0.016633	1.9
26	-0.537806	1.027654	24.768156	0.008614	1.9
27	-0.592690	0.381924	25.516150	0.004601	1.6
28	-0.609336	0.000000	25.980208	0.004283	1.6
29	-0.559246	0.000000	25.980208	0.003627	1.5
30	-0.571567	0.000000	25.980208	0.007753	1.6
31	-0.579454	0.000000	25.980208	0.007478	1.8
32	-0.571738	0.000000	25.980208	0.012323	2.0
33	-0.599244	0.524210	25.347474	0.017094	2.2
34	-0.563955	0.000000	25.980208	0.016823	1.6
35	-0.584542	0.000000	25.980208	0.020458	2.4
36	-0.626037	0.000000	25.980208	0.006509	1.8
37	-0.555890	0.981306	24.820380	0.008188	1.7
38	-0.592841	1.980124	23.741576	0.013174	1.7
39	-0.549942	2.950010	22.780131	0.008266	1.6
40	-0.583871	2.310482	23.405109	0.003957	2.0
41	-0.585088	3.134422	22.606067	0.003628	1.9
42	-0.600222	3.414730	22.346525	0.010380	2.2
43	-0.571093	4.329013	21.539899	0.005317	1.5
44	-0.594238	5.316845	20.731374	0.012276	1.5
45	-0.576207	6.284038	19.996467	0.005271	1.7
46	-0.614529	7.283468	19.289868	0.014455	1.9
47	-0.589513	6.639680	19.739171	0.012211	1.6
48	-0.575290	7.639680	19.049947	0.010985	1.7
49	-0.598469	6.994697	19.488847	0.014722	1.7
50	-0.586530	6.349027	19.948950	0.008339	1.9
51	-0.588293	5.704591	20.430359	0.004808	1.8
52	-0.604769	5.109641	20.895897	0.006829	1.6
53	-0.588899	5.925354	20.262848	0.018050	1.6
54	-0.594065	5.279629	20.760733	0.003269	1.5
55	-0.561606	4.673811	21.250618	0.019448	1.6
56	-0.599290	4.079941	21.753814	0.004313	1.5
57	-0.590694	3.434216	22.328704	0.011330	1.9
58	-0.612417	4.372225	21.503214	0.005795	2.1
59	-0.604618	5.359733	20.697644	0.003068	1.7
60	-0.593813	5.127087	20.881944	0.003125	1.8
61	-0.595686	5.104258	20.900206	0.004931	1.5
62	-0.586468	5.167567	20.849640	0.010382	1.9
63	-0.571303	4.749164	21.188431	0.007576	1.6
64	-0.606421	5.747644	20.397473	0.010017	1.5
65	-0.573863	5.101977	20.902032	0.006994	1.5
66	-0.560580	4.460868	21.428349	0.007104	1.7
67	-0.628501	4.703651	21.225948	0.009733	2.7
68	-0.588304	5.632193	20.485897	0.007612	1.6
69	-0.605492	5.324159	20.725614	0.007969	1.6
70	-0.591855	4.678611	21.246646	0.004616	1.5
71	-0.601290	4.151837	21.691631	0.023237	1.7
72	-0.585529	3.506114	22.263194	0.006596	1.7
73	-0.579245	4.505898	21.390518	0.008760	1.6
74	-0.619917	4.641299	21.277563	0.012880	1.6
75	-0.562896	5.641293	20.478900	0.006950	1.5
76	-0.586610	6.635048	19.742479	0.007486	2.1
77	-0.589109	7.632749	19.054558	0.005550	1.6
78	-0.594789	7.590445	19.082752	0.006364	1.8
79	-0.626910	8.481027	18.506288	0.003974	1.6
80	-0.614644	8.203623	18.682078	0.007127	1.6
81	-0.577156	7.575278	19.092880	0.008349	1.5
82	-0.591728	6.944975	19.523523	0.002074	1.6
83	-0.554226	7.105704	19.411873	0.011468	1.7
84	-0.569966	7.849429	18.911444	0.010197	1.8
85	-0.569770	7.360399	19.237542	0.005974	2.1
86	-0.574460	7.056856	19.445670	0.008678	2.7
87	-0.566047	8.055251	18.777479	0.004987	1.6
88	-0.566578	7.416655	19.199458	0.011510	1.8
89	-0.598327	7.812318	18.935803	0.013191	1.6
90	-0.576434	8.812318	18.300636	0.003646	1.5
91	-0.594941	9.440187	17.923161	0.014825	1.5
92	-0.583730	10.427870	17.359890	0.003986	2.4
93	-0.586216	10.951291	17.075503	0.007434	2.5
94	-0.602680	11.281889	16.900633	0.010799	2.0
95	-0.607956	11.569946	16.751160	0.008002	2.7
96	-0.569062	10.943845	17.079483	0.017860	1.6
97	-0.564134	11.943845	16.561041	0.008416	1.9
98	-0.593394	12.943845	16.073146	0.011795	1.7
99	-0.572606	13.943826	15.613183	0.011789	1.7
100	-0.567646	14.938932	15.180873	0.005665	1.7
101	-0.581288	15.892485	14.788496	0.017394	1.6
102	-0.567053	16.890468	14.398987	0.011283	2.1
103	-0.602103	17.890468	14.028743	0.010677	1.6
104	-0.577320	18.890468	13.677061	0.005642	1.6
105	-0.605354	19.744662	13.390328	0.007377	1.5
106	-0.601138	20.030378	13.297084	0.005633	1.7
107	-0.600714	19.393522	13.506729	0.011359	1.8
108	-0.581758	18.768196	13.719113	0.011107	2.3
109	-0.585791	18.122465	13.945552	0.011578	1.7
110	-0.605358	19.122465	13.597977	0.022052	2.7
111	-0.593948	20.122465	13.267307	0.016554	1.8
112	-0.586800	21.122465	12.952337	0.011928	1.6
113	-0.606876	22.122465	12.651975	0.003694	1.6
114	-0.572466	21.497581	12.838010	0.012912	1.6
115	-0.578529	21.245421	12.914639	0.007350	1.5
116	-0.594270	20.599692	13.115106	0.006790	6.4
117	-0.580618	21.353880	12.881567	0.006536	1.9
118	-0.610235	22.342483	12.587751	0.007451	1.7
119	-0.592092	21.971396	12.696454	0.007414	1.6
120	-0.546019	22.870455	12.436260	0.003266	1.8
121	-0.567284	22.807846	12.454033	0.009735	1.6
122	-0.570363	22.353455	12.584565	0.006478	2.5
123	-0.602775	23.336202	12.305618	0.011035	1.7
124	-0.583493	24.333980	12.034778	0.007426	1.7
125	-0.572950	23.721504	12.199598	0.005451	2.2
126	-0.591312	23.101332	12.371154	0.004932	1.8
127	-0.584503	23.959960	12.134894	0.003943	1.5
128	-0.582865	23.421590	12.281964	0.019134	1.7
129	-0.582968	22.779864	12.461993	0.005501	1.9
130	-0.600283	23.774017	12.185290	0.008730	1.8
131	-0.602598	23.131008	12.362835	0.008308	1.7
132	-0.588345	22.487301	12.545832	0.003691	1.5
133	-0.593096	21.856886	12.730378	0.013714	1.6
134	-0.583794	22.575441	12.520456	0.011090	1.9
135	-0.576456	21.929710	12.708783	0.008383	1.9
136	-0.601442	22.920840	12.421993	0.012644	1.6
137	-0.588879	22.275524	12.607227	0.025688	1.6
138	-0.590833	21.629794	12.798194	0.008270	2.1
139	-0.617786	20.984064	12.995035	0.012220	2.3
140	-0.615024	20.338334	13.198025	0.005849	3.0
141	-0.595440	21.316887	12.892829	0.003071	3.8
142	-0.609918	21.184017	12.933438	0.012441	14.9
143	-0.617384	21.607894	12.804772	0.006410	2.8
144	-0.597969	22.607363	12.511290	0.008326	2.2
145	-0.565675	22.105618	12.656920	0.011196	4.9
146	-0.571567	21.459893	12.849405	0.012490	1.8
147	-0.577836	22.459893	12.553744	0.012727	1.7
148	-0.580316	21.814685	12.742926	0.006024	1.8
149	-0.583884	22.811490	12.452997	0.006356	1.9
150	-0.600885	23.532413	12.251399	0.009927	1.6
151	-0.568251	22.886778	12.431634	0.010762	1.5
152	-0.572501	23.859324	12.162118	0.009530	2.0
153	-0.589485	23.904907	12.149772	0.004860	1.7
154	-0.578605	24.896602	11.887250	0.014448	1.6
155	-0.600740	24.256082	12.055493	0.005689	1.7
156	-0.582486	23.610373	12.229989	0.004510	1.5
157	-0.610184	23.012201	12.396207	0.008466	1.7
158	-0.577252	23.852337	12.164012	0.008453	2.1
159	-0.561273	23.206745	12.341654	0.013857	2.0
160	-0.571531	24.206745	12.068650	0.013840	1.7
161	-0.590565	23.561015	12.243536	0.003327	1.5
162	-0.582341	24.161643	12.080702	0.013216	1.5
163	-0.605099	24.906913	11.884580	0.002203	1.6
164	-0.622956	24.348856	12.030830	0.014846	2.1
165	-0.589129	25.225677	11.802626	0.008912	1.7
166	-0.602920	24.579947	11.969833	0.009794	1.6
167	-0.617155	25.530398	11.725332	0.007264	1.9
168	-0.597050	26.529346	11.478895	0.009604	2.1
169	-0.605631	25.883785	11.636952	0.003461	1.9
170	-0.584470	25.419519	11.753339	0.010236	1.6
171	-0.571335	24.789292	11.915108	0.008320	1.6
172	-0.599935	24.143596	12.085532	0.008214	1.6
173	-0.571008	25.129119	11.827331	0.013425	1.7
174	-0.607503	26.077696	11.589020	0.008533	2.0
175	-0.580968	26.447876	11.498605	0.005225	1.6
176	-0.598527	27.439818	11.263138	0.006522	2.4
177	-0.605754	28.415078	11.040848	0.008054	1.9
178	-0.589543	28.218880	11.084859	0.012645	1.6
179	-0.606216	29.218879	10.864129	0.009864	1.9
180	-0.585711	30.218854	10.652022	0.005056	1.6
181	-0.593558	29.575484	10.787526	0.002846	1.5
182	-0.590628	29.281368	10.850627	0.014729	1.6
183	-0.572266	30.265320	10.642367	0.006318	1.6
184	-0.583958	29.619669	10.778110	0.018748	2.6
185	-0.568348	29.908684	10.716922	0.009358	2.0
186	-0.620304	30.908614	10.510479	0.013136	1.6
187	-0.593212	30.262890	10.642872	0.011453	1.5
188	-0.594059	30.371707	10.620328	0.005296	1.6
189	-0.617846	30.823185	10.527805	0.007558	1.8
190	-0.593494	30.377952	10.619037	0.006793	1.7
191	-0.584850	29.733360	10.753957	0.007139	1.7
192	-0.580822	30.726092	10.547566	0.017000	1.6
193	-0.567330	30.093649	10.678125	0.005814	3.0
194	-0.594862	30.701828	10.552516	0.008193	2.2
195	-0.607840	30.083181	10.680313	0.012773	2.2
196	-0.579952	31.082973	10.475292	0.010723	1.6
197	-0.603516	30.437243	10.606797	0.007104	1.7
198	-0.557336	31.399789	10.411957	0.009762	1.9
199	-0.615132	32.399543	10.217023	0.013779	2.1
200	-0.600642	33.397037	10.029671	0.007338	2.9
201	-0.570521	34.397010	9.848625	0.008702	2.1
202	-0.599767	35.396766	9.674036	0.017347	2.1
203	-0.606071	34.751036	9.786085	0.011191	1.7
204	-0.576803	35.751035	9.613646	0.003279	1.7
205	-0.590980	35.118898	9.721937	0.007235	1.5
206	-0.586270	35.959810	9.578409	0.007857	1.6
207	-0.592434	36.954047	9.414086	0.011987	1.8
208	-0.596374	36.308486	9.520132	0.014778	1.9
209	-0.603688	37.308486	9.356860	0.018104	2.0
210	-0.588575	38.296890	9.200894	0.018474	1.6
211	-0.582677	37.651160	9.302192	0.009139	1.5
212	-0.593233	37.018246	9.403669	0.009899	1.5
213	-0.589195	38.017045	9.244522	0.013793	2.0
214	-0.616307	39.017042	9.090491	0.003587	1.6
215	-0.592924	39.840863	8.967400	0.007484	1.6
216	-0.593001	39.801354	8.973227	0.006626	2.6
217	-0.614582	40.765487	8.833159	0.016314	1.7
218	-0.573375	40.197013	8.915212	0.005719	2.2
219	-0.597173	41.195911	8.772029	0.008927	1.6
220	-0.575279	42.075790	8.649664	0.004312	1.5
221	-0.605282	41.469238	8.733649	0.008958	1.5
222	-0.614068	42.302083	8.618743	0.016835	1.5
223	-0.582384	43.302083	8.484708	0.013165	2.1
224	-0.597136	44.302083	8.354777	0.013559	2.0
225	-0.611167	45.302083	8.228767	0.006890	1.7
226	-0.579295	44.656386	8.309692	0.007315	1.7
227	-0.593168	45.609297	8.190814	0.007388	1.9
228	-0.584912	46.605080	8.070168	0.014973	1.9
229	-0.605455	47.605035	7.952541	0.015005	1.6
230	-0.602420	46.959304	8.028104	0.013007	1.6
231	-0.587028	46.313574	8.105117	0.001782	1.5
232	-0.611994	45.946916	8.149507	0.011542	2.4
233	-0.558146	46.283725	8.108712	0.008226	2.6
234	-0.579859	45.714363	8.177915	0.005888	1.9
235	-0.579806	45.071068	8.257538	0.008924	1.8
236	-0.598533	45.755757	8.172844	0.008217	1.7
237	-0.583674	45.110054	8.252669	0.006936	1.7
238	-0.584990	46.090175	8.132105	0.009238	1.6
239	-0.595954	47.024138	8.020452	0.003479	1.6
240	-0.574495	47.902901	7.918163	0.006663	1.5
241	-0.576119	48.112399	7.894161	0.007971	1.8
242	-0.544925	47.471953	7.967998	0.009104	1.6
243	-0.592357	48.471783	7.853323	0.012183	1.7
244	-0.580009	49.471782	7.741884	0.017675	2.2
245	-0.601469	48.826052	7.813479	0.003314	1.6
246	-0.576800	48.182231	7.886192	0.010584	1.8
247	-0.591924	47.548338	7.959119	0.008954	1.6
248	-0.576173	46.920132	8.032734	0.016430	1.9
249	-0.605429	47.800938	7.929897	0.013295	2.3
250	-0.589044	48.800937	7.816290	0.010686	1.6
251	-0.578623	49.308450	7.759869	0.007645	1.5
252	-0.580534	50.308432	7.651050	0.005790	1.8
253	-0.591722	50.598273	7.620077	0.010016	1.8
254	-0.574233	51.581135	7.516889	0.004202	1.6
255	-0.611141	50.957489	7.582037	0.002998	1.6
