1:ItNr	2:Metric	3a:Time	3b:StepSize	4:||Gradient||	Time[ms]
0	-0.533462	0.000000	13.605092	0.008969	48.4
1	-0.533596	0.000000	13.605092	0.010164	1.6
2	-0.563593	0.000000	13.605092	0.009069	1.8
3	-0.528708	0.032103	13.584326	0.006126	1.6
4	-0.565310	0.777597	13.119305	0.007310	1.7
5	-0.567181	0.076018	13.556021	0.006657	1.5
6	-0.525970	0.000000	13.605092	0.004243	1.6
7	-0.532335	0.000000	13.605092	0.004420	2.1
8	-0.527603	0.000000	13.605092	0.008409	1.6
9	-0.529336	0.000000	13.605092	0.013159	2.0
10	-0.540644	0.987018	12.994347	0.006552	1.6
11	-0.557420	1.957034	12.445290	0.020941	1.6
12	-0.544422	2.834245	11.987245	0.007442	1.7
13	-0.532641	2.026866	12.407548	0.005366	1.7
14	-0.578722	1.676411	12.599301	0.020748	1.7
15	-0.555054	2.645450	12.082957	0.009530	1.7
16	-0.541851	1.834823	12.511897	0.008676	1.7
17	-0.548311	2.819609	11.994611	0.002954	1.9
18	-0.539457	2.483126	12.166478	0.011295	1.6
19	-0.553169	2.622641	12.094623	0.012562	1.6
20	-0.557310	1.825469	12.517024	0.006101	2.1
21	-0.542320	1.841865	12.508039	0.014086	2.2
22	-0.549855	1.134365	12.907845	0.008110	1.7
23	-0.577062	1.996769	12.423786	0.003736	2.3
24	-0.555166	1.565235	12.661377	0.009259	1.8
25	-0.549906	1.391133	12.759825	0.009920	2.1
26	-0.567629	1.567219	12.660264	0.005075	2.1
27	-0.543865	1.019995	12.974887	0.004869	1.6
28	-0.548745	0.513055	13.280631	0.004785	1.5
29	-0.540328	0.443586	13.323655	0.007943	1.7
30	-0.543681	0.000000	13.605092	0.018539	1.5
31	-0.543591	0.000000	13.605092	0.005686	2.0
32	-0.527417	0.296244	13.415837	0.007565	1.7
33	-0.559987	0.000000	13.605092	0.009824	1.6
34	-0.554459	0.859543	13.070124	0.010526	1.5
35	-0.550488	1.843496	12.507146	0.010106	1.7
36	-0.560055	2.636908	12.087323	0.005844	2.0
37	-0.549932	2.226913	12.300685	0.009567	1.6
38	-0.577136	1.590876	12.647006	0.014013	1.7
39	-0.531480	0.781396	13.117017	0.014584	1.5
40	-0.529004	1.725035	12.572343	0.022339	2.4
41	-0.552235	2.725035	12.042424	0.006321	1.9
42	-0.530228	3.724553	11.555596	0.009568	1.5
43	-0.557525	4.668781	11.130523	0.004646	1.6
44	-0.561696	4.429880	11.235088	0.006569	1.5
45	-0.533902	4.192793	11.340820	0.008970	1.6
46	-0.543809	4.726730	11.105451	0.007410	1.5
47	-0.570088	5.110698	10.942141	0.017003	1.6
48	-0.565528	5.455430	10.799558	0.010695	1.6
49	-0.517618	6.004975	10.579789	0.006770	1.9
50	-0.562542	6.868074	10.252124	0.008558	1.7
51	-0.550179	7.555089	10.005465	0.014180	1.6
52	-0.563566	8.540134	9.671823	0.011886	1.8
53	-0.545511	9.539925	9.355195	0.007370	1.6
54	-0.566845	8.787807	9.591406	0.010822	1.6
55	-0.542789	8.063016	9.830602	0.010970	1.5
56	-0.533324	9.036607	9.511958	0.015033	1.8
57	-0.564021	8.316998	9.745436	0.005470	1.7
58	-0.538171	9.140195	9.479266	0.016928	1.5
59	-0.541359	8.498896	9.685344	0.011850	2.1
60	-0.547472	7.688306	9.959004	0.009644	1.6
61	-0.533917	8.682920	9.625298	0.005539	1.7
62	-0.535385	8.343585	9.736607	0.017304	1.5
63	-0.539256	7.625729	9.980775	0.009010	2.1
64	-0.544706	8.608045	9.649639	0.009926	2.2
65	-0.554290	8.769461	9.597317	0.009125	2.2
66	-0.535855	7.974496	9.860635	0.014249	1.8
67	-0.550654	8.973717	9.531916	0.017403	1.7
68	-0.521260	8.163064	9.796877	0.006717	1.6
69	-0.568420	8.994384	9.525348	0.009927	1.6
70	-0.540245	8.322272	9.743683	0.004798	1.7
71	-0.547843	8.826981	9.578809	0.025555	1.6
72	-0.554520	8.354373	9.733028	0.007285	1.5
73	-0.541637	7.678312	9.962474	0.005093	1.7
74	-0.546773	8.155976	9.799258	0.009771	1.8
75	-0.553588	8.595589	9.653700	0.011325	1.7
76	-0.536992	7.798594	9.920864	0.017587	1.5
77	-0.539976	6.987988	10.208199	0.011371	1.7
78	-0.548128	7.987962	9.856055	0.008803	1.6
79	-0.538809	8.969330	9.533311	0.010560	1.5
80	-0.542896	9.925223	9.238638	0.011112	1.6
81	-0.580093	10.922620	8.949984	0.011221	1.5
82	-0.555516	11.920615	8.678664	0.004797	1.7
83	-0.572594	12.228938	8.598136	0.005221	3.7
84	-0.559096	12.035707	8.648428	0.007569	1.7
85	-0.567950	11.443519	8.806287	0.006050	1.6
86	-0.564951	10.836058	8.974319	0.010595	1.6
87	-0.566653	11.462082	8.801251	0.011836	1.7
88	-0.530729	12.459104	8.538990	0.009698	1.9
89	-0.541031	12.176227	8.611797	0.005087	1.6
90	-0.554671	12.410585	8.551390	0.005472	1.7
91	-0.567692	12.375042	8.560497	0.003163	1.5
92	-0.547014	12.164060	8.614957	0.008745	1.9
93	-0.538521	12.069540	8.639580	0.007075	1.8
94	-0.548877	11.885435	8.687948	0.008931	1.6
95	-0.522827	11.139804	8.889505	0.011058	1.7
96	-0.535006	12.060304	8.641994	0.004465	1.6
97	-0.550395	11.402434	8.817453	0.007407	1.7
98	-0.568488	10.823411	8.977886	0.004914	1.5
99	-0.558875	10.938088	8.945650	0.014706	2.0
100	-0.552313	11.879358	8.689554	0.014764	1.9
101	-0.569202	12.854424	8.439279	0.005029	1.6
102	-0.569664	12.116373	8.627362	0.008984	1.5
103	-0.541846	12.133543	8.622891	0.012246	1.7
104	-0.561422	11.340061	8.834459	0.009655	2.4
105	-0.558670	10.547614	9.056372	0.009022	1.6
106	-0.585140	9.746611	9.292307	0.006067	1.5
107	-0.532564	9.353669	9.412600	0.009139	1.6
108	-0.573008	9.422513	9.391300	0.010260	1.8
109	-0.534056	10.410616	9.095872	0.018199	2.7
110	-0.524415	11.408939	8.815683	0.002859	2.4
111	-0.589007	10.819828	8.978896	0.008767	4.2
112	-0.566542	11.144182	8.888294	0.018378	11.9
113	-0.553557	12.142383	8.620592	0.006472	3.2
114	-0.538078	12.912207	8.424900	0.022963	2.6
115	-0.561341	13.829318	8.203059	0.017571	2.9
116	-0.547311	13.090449	8.380850	0.008408	2.4
117	-0.527729	14.089952	8.142130	0.009445	3.9
118	-0.556713	14.536306	8.039860	0.014364	2.0
119	-0.535711	15.534942	7.820101	0.011555	2.6
120	-0.558608	16.534857	7.611776	0.005996	1.7
121	-0.558270	17.503595	7.420267	0.010959	1.5
122	-0.545754	16.721019	7.574211	0.017321	1.7
123	-0.555205	17.720064	7.378783	0.005742	2.0
124	-0.537958	18.705153	7.195714	0.008472	1.7
125	-0.563811	19.108368	7.123375	0.007975	1.6
126	-0.560015	18.331674	7.264042	0.013244	1.5
127	-0.577348	19.327630	7.084645	0.010741	1.7
128	-0.566161	18.517401	7.229902	0.018688	2.0
129	-0.554023	17.709416	7.380812	0.008648	1.8
130	-0.557558	18.709193	7.194982	0.017057	1.7
131	-0.548429	19.708787	7.018311	0.003558	2.3
132	-0.567808	20.636968	6.861858	0.015077	1.8
133	-0.519193	21.476920	6.726169	0.009952	1.7
134	-0.548495	22.472055	6.572198	0.008877	1.7
135	-0.545965	21.680417	6.694099	0.008850	1.6
136	-0.528525	22.647146	6.545833	0.007348	1.9
137	-0.547334	21.989595	6.645956	0.020299	2.1
138	-0.551737	22.902446	6.507768	0.014827	3.2
139	-0.566023	22.091887	6.630179	0.009302	1.8
140	-0.540635	21.328385	6.749772	0.013489	1.5
141	-0.546865	22.327154	6.594178	0.005670	1.9
142	-0.533479	23.296667	6.449852	0.012433	2.4
143	-0.552488	24.090589	6.336288	0.009730	2.0
144	-0.528743	25.087098	6.199283	0.007151	2.7
145	-0.542554	25.205922	6.183340	0.021956	2.5
146	-0.571032	26.182463	6.055363	0.009982	2.1
147	-0.531327	27.182437	5.929691	0.004776	2.1
148	-0.528463	27.746996	5.861016	0.007044	2.2
149	-0.608831	27.753361	5.860251	0.013321	2.2
150	-0.513976	28.730912	5.745057	0.011607	2.3
151	-0.555475	29.730707	5.631834	0.006438	3.1
152	-0.543780	28.983473	5.716028	0.005501	2.1
153	-0.567773	28.453126	5.777328	0.006530	2.1
154	-0.559213	27.896622	5.843081	0.006244	2.5
155	-0.574164	28.507900	5.770936	0.007277	2.1
156	-0.518284	29.222817	5.688788	0.007983	2.2
157	-0.569087	28.556907	5.765230	0.004806	2.0
158	-0.557104	28.018679	5.828532	0.007359	4.2
159	-0.560158	27.373456	5.906275	0.007889	2.6
160	-0.558644	26.949888	5.958449	0.009068	2.2
161	-0.552906	26.303091	6.039921	0.006358	2.1
162	-0.541867	26.270012	6.044148	0.004221	2.2
163	-0.566603	25.786790	6.106573	0.013208	2.1
164	-0.540888	26.287833	6.041870	0.007574	3.2
165	-0.554936	25.492434	6.145235	0.005983	3.2
166	-0.579401	26.231436	6.049084	0.007481	2.4
167	-0.553935	26.039101	6.073818	0.004909	2.1
168	-0.548305	25.754901	6.110738	0.016459	2.2
169	-0.537605	24.971502	6.214871	0.006088	2.6
170	-0.564087	25.964380	6.083482	0.012360	2.3
171	-0.536117	25.170128	6.188134	0.005894	2.1
172	-0.553773	24.464707	6.284148	0.004370	2.1
173	-0.551488	24.081566	6.337556	0.007345	2.1
174	-0.559182	24.673059	6.255481	0.020251	2.0
175	-0.543677	25.672082	6.121581	0.013869	2.1
176	-0.528697	24.861427	6.229787	0.006428	3.4
177	-0.556068	24.157201	6.326941	0.010576	2.2
178	-0.548864	23.462988	6.425725	0.003106	2.0
179	-0.549041	23.498120	6.420652	0.014493	2.1
180	-0.554198	23.952099	6.355809	0.004423	2.0
181	-0.547719	24.794753	6.238858	0.011013	2.3
182	-0.525862	25.592788	6.131999	0.003616	2.0
183	-0.555955	26.198839	6.053262	0.007771	2.5
184	-0.541963	26.370994	6.031263	0.009075	2.3
185	-0.559089	25.863833	6.096534	0.009594	2.2
186	-0.574335	25.064385	6.202339	0.004419	2.0
187	-0.555611	24.484271	6.281445	0.010347	2.0
188	-0.542288	25.069088	6.201706	0.003260	2.1
189	-0.560159	25.029291	6.207068	0.003464	2.3
190	-0.557006	24.912690	6.222832	0.012248	2.3
191	-0.540443	25.636721	6.126223	0.008526	2.1
192	-0.563980	26.629188	5.998568	0.014355	2.1
193	-0.518360	25.825403	6.101537	0.004120	2.1
194	-0.544059	25.623857	6.127913	0.016114	2.2
195	-0.570965	25.414723	6.155524	0.014715	2.1
196	-0.556278	24.604078	6.264943	0.016693	2.6
197	-0.539655	23.793431	6.378322	0.012652	2.2
198	-0.515849	24.793409	6.239041	0.016287	2.2
199	-0.549242	25.324380	6.167529	0.011801	2.1
200	-0.552319	26.324359	6.037207	0.007702	2.1
201	-0.558168	25.546007	6.138162	0.009054	2.2
202	-0.569858	24.770828	6.242119	0.005168	1.6
203	-0.560420	24.223714	6.317635	0.022003	1.9
204	-0.554657	25.213847	6.182280	0.010289	1.6
205	-0.545771	24.431147	6.288790	0.006732	1.7
206	-0.567855	23.740227	6.385907	0.011904	1.6
207	-0.537681	23.439767	6.429083	0.010367	1.8
208	-0.549568	22.790632	6.524385	0.005058	1.6
209	-0.522941	22.119957	6.625863	0.016897	1.6
210	-0.525348	22.718476	6.535153	0.016646	1.5
211	-0.543490	23.718476	6.389013	0.013470	1.6
212	-0.557828	22.908303	6.506900	0.016245	1.8
213	-0.532754	23.908299	6.362008	0.007797	1.8
214	-0.554624	23.101198	6.478439	0.011833	1.6
215	-0.505404	24.041655	6.343171	0.003386	1.5
216	-0.564527	24.523291	6.276061	0.013176	1.7
217	-0.561894	25.087357	6.199248	0.014300	1.8
218	-0.541493	24.277643	6.310111	0.013816	1.6
219	-0.566927	23.680833	6.394396	0.010257	1.6
220	-0.537142	24.679878	6.254547	0.012858	1.9
221	-0.548080	25.649210	6.124583	0.011743	1.8
222	-0.548243	24.839061	6.232827	0.002923	1.6
223	-0.550298	25.373384	6.161011	0.019862	1.7
224	-0.552731	24.647829	6.258938	0.021642	1.5
225	-0.562293	25.647829	6.124764	0.014263	1.6
226	-0.540944	24.837174	6.233084	0.008491	1.6
227	-0.537337	24.034551	6.344172	0.013344	1.9
228	-0.544289	23.541240	6.414436	0.010426	1.7
229	-0.574977	24.538593	6.273952	0.011657	2.0
230	-0.519862	24.875318	6.227901	0.004376	1.8
231	-0.527950	24.184698	6.323091	0.008088	1.5
232	-0.537673	24.522954	6.276107	0.008659	1.7
233	-0.557252	24.997494	6.211359	0.009839	1.6
234	-0.556959	24.358062	6.298923	0.012172	1.5
235	-0.542645	23.554220	6.412568	0.016450	1.7
236	-0.550633	22.743602	6.531400	0.012766	1.5
237	-0.533510	23.743598	6.385426	0.013154	1.5
238	-0.538381	22.933049	6.503235	0.003222	2.0
239	-0.569954	22.539925	6.561953	0.013879	2.6
240	-0.543895	22.910080	6.506637	0.012630	1.7
241	-0.547220	23.302293	6.449033	0.004502	1.6
242	-0.583798	23.601730	6.405737	0.010997	2.0
243	-0.536984	23.266513	6.454246	0.005127	1.7
244	-0.565622	23.064899	6.483776	0.006186	1.7
245	-0.567567	23.612671	6.404166	0.009713	1.5
246	-0.539975	22.864493	6.513399	0.006593	2.0
247	-0.501697	23.305464	6.448571	0.004562	1.8
248	-0.537718	23.069279	6.483132	0.005394	1.5
249	-0.547292	23.352855	6.441681	0.005969	1.6
250	-0.554367	23.614980	6.403834	0.009690	1.6
251	-0.563665	22.898333	6.508378	0.010756	1.6
252	-0.540120	23.786964	6.379243	0.006530	1.5
253	-0.547365	24.127614	6.331089	0.013814	1.7
254	-0.565193	23.641231	6.400069	0.004988	1.7
255	-0.545541	23.843578	6.371190	0.008992	2.0
