1:ItNr	2:Metric	2:Metric0	2:Metric1	3a:Time	3b:StepSize	4:||Gradient0||	4:||Gradient1||	4:||Gradient||	Time0[ms]	Time1[ms]	Time[ms]
0	-0.531523	-0.534999	0.000000	0.000000	64.919775	0.005506	0.000000	0.007264	6.7	6.9	156.7
1	-0.516184	-0.519983	0.000000	0.000000	64.919775	0.005175	0.000001	0.007396	2.7	5.8	9.0
2	-0.549986	-0.553992	0.000000	0.025446	64.841206	0.003370	0.000001	0.006922	2.2	6.6	9.1
3	-0.521914	-0.525729	0.000000	0.049961	64.765692	0.004544	0.000001	0.007337	2.1	5.7	8.1
4	-0.579163	-0.583073	0.000000	0.073481	64.693408	0.003891	0.000001	0.007113	2.1	6.2	8.7
5	-0.538839	-0.542644	0.000000	0.098819	64.615716	0.004188	0.000001	0.007186	2.2	6.0	8.6
6	-0.559070	-0.562779	0.000000	0.114664	64.567227	0.005458	0.000001	0.007521	2.2	5.7	8.4
7	-0.554949	-0.558977	0.000000	0.133694	64.509087	0.005609	0.000001	0.008464	2.1	6.1	8.6
8	-0.565325	-0.569256	0.000000	0.159441	64.430589	0.003109	0.000001	0.006712	2.2	5.8	8.3
9	-0.549577	-0.553677	0.000000	0.182018	64.361917	0.005435	0.000001	0.008070	2.3	6.1	8.8
10	-0.559821	-0.563702	0.000000	0.207307	64.285166	0.003113	0.000001	0.006060	2.4	5.7	8.5
11	-0.546579	-0.550247	0.000000	0.227211	64.224890	0.004725	0.000001	0.006883	2.2	6.2	8.8
12	-0.556957	-0.560473	0.000000	0.235240	64.200607	0.004455	0.000001	0.006851	2.3	5.9	8.6
13	-0.543317	-0.547198	0.000000	0.250419	64.154750	0.003584	0.000001	0.006495	2.6	5.7	8.6
14	-0.575317	-0.579146	0.000000	0.267964	64.101824	0.005479	0.000001	0.007202	2.2	6.8	9.8
15	-0.539700	-0.543486	0.000000	0.279207	64.067955	0.004491	0.000001	0.007368	2.3	9.7	12.7
16	-0.557019	-0.561217	0.000000	0.297749	64.012176	0.004759	0.000001	0.007769	2.2	5.6	8.3
17	-0.573498	-0.577372	0.000000	0.327244	63.923650	0.005247	0.000001	0.007178	2.2	5.8	8.4
18	-0.560144	-0.564181	0.000000	0.353702	63.844446	0.004319	0.000001	0.007798	2.2	12.9	15.6
19	-0.564735	-0.568653	0.000000	0.372098	63.789492	0.004382	0.000001	0.007248	4.0	11.7	16.3
20	-0.552783	-0.556430	0.000000	0.388479	63.740637	0.003754	0.000001	0.006349	3.2	10.0	13.6
21	-0.555314	-0.559195	0.000000	0.403654	63.695447	0.006099	0.000001	0.008132	3.4	5.5	9.2
22	-0.544862	-0.548693	0.000000	0.421605	63.642070	0.005559	0.000001	0.008030	2.2	6.8	9.6
23	-0.559913	-0.563874	0.000000	0.441172	63.583991	0.005123	0.000001	0.007513	2.3	5.6	8.2
24	-0.556189	-0.560195	0.000000	0.461784	63.522923	0.005658	0.000001	0.007867	4.4	6.5	11.2
25	-0.546401	-0.550477	0.000000	0.475587	63.482096	0.006038	0.000001	0.008574	2.2	5.7	8.4
26	-0.544498	-0.548678	0.000000	0.497635	63.416988	0.007013	0.000001	0.009355	2.4	5.9	8.8
27	-0.568121	-0.571707	0.000000	0.555205	63.247612	0.004153	0.000001	0.006788	2.1	6.6	9.0
28	-0.519984	-0.523631	0.000000	0.578740	63.178631	0.003822	0.000001	0.007036	2.2	5.7	8.4
29	-0.574014	-0.577719	0.000000	0.586829	63.154958	0.003723	0.000001	0.006314	2.7	6.6	9.7
30	-0.560849	-0.564689	0.000000	0.600630	63.114608	0.004388	0.000001	0.007060	3.8	6.3	10.5
31	-0.536176	-0.539851	0.000000	0.612138	63.081000	0.003992	0.000001	0.006265	3.5	73.0	77.0
32	-0.521376	-0.525104	0.000000	0.622160	63.051761	0.003607	0.000001	0.006491	6.8	12.9	20.2
33	-0.531122	-0.534645	0.000000	0.636700	63.009390	0.004540	0.000001	0.007011	28.7	19.1	48.3
34	-0.538363	-0.542104	0.000000	0.645619	62.983427	0.004982	0.000001	0.007310	18.1	31.6	51.6
35	-0.555460	-0.558834	0.000000	0.663613	62.931112	0.004533	0.000001	0.006743	15.6	22.3	41.5
36	-0.565312	-0.569000	0.000000	0.675039	62.897940	0.006347	0.000001	0.008329	11.1	13.5	25.3
37	-0.542346	-0.545970	0.000000	0.692795	62.846455	0.005258	0.000001	0.007269	4.8	8.8	14.1
38	-0.544884	-0.548890	0.000000	0.713599	62.786242	0.005280	0.000001	0.007588	3.9	10.3	14.6
39	-0.574333	-0.578290	0.000000	0.731008	62.735944	0.007320	0.000001	0.008940	4.8	11.5	17.2
40	-0.567241	-0.571171	0.000000	0.745605	62.693830	0.004547	0.000001	0.007068	3.4	6.7	10.5
41	-0.540259	-0.544415	0.000000	0.759401	62.654082	0.004248	0.000001	0.007192	3.1	6.9	10.4
42	-0.547462	-0.551321	0.000000	0.776271	62.605545	0.002970	0.000001	0.006685	2.2	8.6	11.3
43	-0.544556	-0.548526	0.000000	0.790237	62.565418	0.003847	0.000001	0.006901	2.1	5.8	8.3
44	-0.555641	-0.559428	0.000000	0.802032	62.531569	0.004178	0.000001	0.006535	4.2	5.8	10.5
45	-0.561853	-0.565726	0.000000	0.811443	62.504590	0.003937	0.000001	0.006644	2.1	7.5	10.1
46	-0.538416	-0.542441	0.000000	0.822969	62.471576	0.009445	0.000001	0.010678	2.7	5.7	8.9
47	-0.570814	-0.575212	0.000000	0.842169	62.416662	0.006854	0.000001	0.007959	2.1	7.8	10.3
48	-0.563353	-0.568188	0.000000	0.829270	62.453546	0.007651	0.000001	0.009218	2.2	7.6	10.2
49	-0.569685	-0.574464	0.000000	0.848308	62.399125	0.005753	0.000001	0.008666	4.1	5.7	10.2
50	-0.568055	-0.572337	0.000000	0.883290	62.299375	0.004896	0.000001	0.007411	2.2	7.0	10.0
51	-0.562344	-0.566481	0.000000	0.898909	62.254940	0.005893	0.000001	0.008399	2.6	5.5	8.5
52	-0.563475	-0.567737	0.000000	0.917694	62.201584	0.005038	0.000001	0.007518	2.6	7.2	10.2
53	-0.541158	-0.545345	0.000000	0.936612	62.147942	0.005185	0.000001	0.007898	2.2	6.8	9.3
54	-0.560877	-0.565024	0.000000	0.966402	62.063659	0.005459	0.000001	0.007352	3.0	5.8	9.4
55	-0.555941	-0.560112	0.000000	0.981745	62.020338	0.005581	0.000001	0.007551	2.7	5.4	8.6
56	-0.552057	-0.556213	0.000000	0.996914	61.977571	0.006664	0.000001	0.008245	3.4	5.6	9.4
57	-0.536281	-0.540442	0.000000	1.015871	61.924204	0.006367	0.000001	0.008500	3.6	7.4	11.5
58	-0.542459	-0.546639	0.000000	1.033564	61.874477	0.005946	0.000001	0.008327	2.7	6.2	9.3
59	-0.567929	-0.572086	0.000000	1.066870	61.781090	0.007550	0.000001	0.009149	2.5	6.5	9.4
60	-0.552219	-0.556934	0.000000	1.084805	61.730917	0.005837	0.000001	0.008842	2.3	6.1	8.8
61	-0.566930	-0.571233	0.000000	1.107118	61.668612	0.006202	0.000001	0.008549	3.2	6.3	10.0
62	-0.555152	-0.559639	0.000000	1.134541	61.592210	0.003482	0.000001	0.007138	8.5	13.2	22.2
63	-0.573141	-0.577267	0.000000	1.151331	61.545525	0.003568	0.000001	0.006640	4.8	10.9	16.2
64	-0.546836	-0.550823	0.000000	1.162438	61.514681	0.006961	0.000001	0.008648	4.5	11.1	16.2
65	-0.513825	-0.518375	0.000000	1.173542	61.483875	0.005304	0.000001	0.009305	7.0	10.2	17.7
66	-0.546362	-0.550368	0.000000	1.227125	61.335656	0.004432	0.000001	0.007308	6.3	10.0	16.7
67	-0.542378	-0.546135	0.000000	1.255857	61.256473	0.004753	0.000001	0.007108	4.4	10.7	16.6
68	-0.557216	-0.561285	0.000000	1.266794	61.226384	0.004176	0.000001	0.006858	5.4	10.9	16.8
69	-0.567118	-0.571121	0.000000	1.278539	61.194107	0.005256	0.000001	0.007260	5.9	11.0	17.4
70	-0.555814	-0.559795	0.000000	1.292635	61.155412	0.004178	0.000001	0.007291	5.6	17.9	23.9
71	-0.538863	-0.542554	0.000000	1.311918	61.102559	0.005457	0.000001	0.007877	3.5	11.5	15.4
72	-0.562102	-0.566025	0.000000	1.333995	61.042159	0.005864	0.000001	0.007812	3.9	8.1	12.4
73	-0.577457	-0.581573	0.000000	1.363757	60.960922	0.005169	0.000001	0.007631	2.3	6.2	8.9
74	-0.523584	-0.527247	0.000000	1.381600	60.912324	0.003331	0.000001	0.006404	2.2	6.3	8.9
75	-0.563884	-0.567893	0.000000	1.394325	60.877713	0.005388	0.000001	0.007992	2.3	6.3	9.0
76	-0.565665	-0.569412	0.000000	1.406838	60.843716	0.004462	0.000001	0.006660	2.9	5.6	8.9
77	-0.540294	-0.543965	0.000000	1.431024	60.778110	0.004598	0.000001	0.007124	2.9	5.6	8.8
78	-0.549204	-0.553206	0.000000	1.446434	60.736387	0.007780	0.000001	0.009485	3.5	6.2	10.1
79	-0.568019	-0.571875	0.000000	1.455481	60.711915	0.004044	0.000001	0.006699	2.2	6.1	8.7
80	-0.563511	-0.567468	0.000000	1.483898	60.635183	0.006099	0.000001	0.008197	2.3	8.0	10.6
81	-0.527119	-0.531196	0.000000	1.498597	60.595568	0.005939	0.000001	0.008566	3.3	6.9	10.7
82	-0.570853	-0.575075	0.000000	1.524485	60.525924	0.004805	0.000001	0.007582	2.1	5.7	8.2
83	-0.531918	-0.535643	0.000000	1.547844	60.463221	0.004575	0.000001	0.006713	3.2	7.3	10.8
84	-0.540266	-0.544125	0.000000	1.560135	60.430281	0.005126	0.000001	0.007069	2.3	6.4	9.0
85	-0.551344	-0.555314	0.000000	1.572119	60.398197	0.004730	0.000001	0.007480	3.4	7.1	11.2
86	-0.564359	-0.568182	0.000000	1.590402	60.349314	0.004759	0.000001	0.006817	2.1	10.5	13.0
87	-0.513534	-0.517509	0.000000	1.604440	60.311836	0.004808	0.000001	0.007339	3.4	7.5	11.3
88	-0.550197	-0.554387	0.000000	1.613119	60.288689	0.004504	0.000001	0.007203	2.1	5.6	8.1
89	-0.541208	-0.545111	0.000000	1.633698	60.233874	0.006009	0.000001	0.008079	2.5	7.7	10.6
90	-0.537859	-0.541652	0.000000	1.645606	60.202199	0.005549	0.000001	0.007196	2.2	5.6	8.2
91	-0.556636	-0.560499	0.000000	1.658855	60.166997	0.004619	0.000001	0.007317	3.6	5.7	9.7
92	-0.543682	-0.547425	0.000000	1.672195	60.131596	0.003983	0.000001	0.006762	2.2	7.4	10.1
93	-0.543211	-0.547187	0.000000	1.690956	60.081880	0.004180	0.000001	0.006852	2.2	5.5	8.1
94	-0.571534	-0.575241	0.000000	1.707805	60.037298	0.005935	0.000001	0.008007	2.4	6.2	9.0
95	-0.538760	-0.542670	0.000000	1.723640	59.995462	0.004636	0.000001	0.007464	2.3	5.4	8.1
96	-0.563013	-0.566715	0.000000	1.747965	59.931308	0.004033	0.000001	0.006567	2.3	6.4	9.1
97	-0.578998	-0.582909	0.000000	1.754600	59.913832	0.006462	0.000001	0.008036	2.3	6.3	9.0
98	-0.526151	-0.530032	0.000000	1.762836	59.892154	0.004810	0.000001	0.006990	2.3	6.3	9.0
99	-0.554339	-0.558294	0.000000	1.783463	59.837932	0.005377	0.000001	0.007421	2.1	6.3	8.9
100	-0.549372	-0.553371	0.000000	1.800153	59.794130	0.005039	0.000001	0.007912	2.6	5.8	8.8
101	-0.549435	-0.553201	0.000000	1.828387	59.720175	0.005669	0.000001	0.007598	3.0	5.7	9.0
102	-0.542689	-0.546495	0.000000	1.840635	59.688152	0.005609	0.000001	0.007723	2.3	6.0	8.7
103	-0.538958	-0.542988	0.000000	1.862683	59.630591	0.005206	0.000001	0.008092	2.2	6.0	8.6
104	-0.552597	-0.556513	0.000000	1.880591	59.583919	0.005463	0.000001	0.008035	2.3	10.1	12.9
105	-0.550106	-0.553781	0.000000	1.898154	59.538217	0.003761	0.000001	0.006229	21.4	10.8	32.7
106	-0.563315	-0.567026	0.000000	1.912692	59.500442	0.004230	0.000001	0.006967	9.3	5.6	15.7
107	-0.584656	-0.588372	0.000000	1.916716	59.489994	0.003453	0.000001	0.006622	2.7	7.6	10.7
108	-0.579667	-0.583234	0.000000	1.927233	59.462705	0.007403	0.000001	0.008929	2.6	6.6	9.6
109	-0.559901	-0.563847	0.000000	1.946576	59.412579	0.005556	0.000001	0.007002	2.7	5.6	8.7
110	-0.566660	-0.570403	0.000000	1.956796	59.386130	0.005186	0.000001	0.007264	2.9	10.4	13.7
111	-0.560087	-0.563950	0.000000	1.966764	59.360355	0.003979	0.000001	0.006678	2.1	8.3	10.9
112	-0.575216	-0.578938	0.000000	1.982322	59.320172	0.005925	0.000001	0.008286	2.1	6.6	9.1
113	-0.566341	-0.570360	0.000000	1.993931	59.290223	0.005288	0.000001	0.007571	2.4	9.1	11.9
114	-0.528572	-0.532343	0.000000	2.015391	59.234940	0.004798	0.000001	0.006967	4.1	8.2	12.7
115	-0.550646	-0.554538	0.000000	2.030721	59.195511	0.002787	0.000001	0.006363	2.3	5.9	8.7
116	-0.556610	-0.560064	0.000000	2.048676	59.149398	0.003769	0.000001	0.006045	2.4	8.4	11.2
117	-0.555211	-0.558957	0.000000	2.063046	59.112543	0.005866	0.000001	0.007580	2.4	6.6	9.4
118	-0.539497	-0.543086	0.000000	2.070742	59.092824	0.005229	0.000001	0.007286	3.2	6.0	9.7
119	-0.552147	-0.555815	0.000000	2.091440	59.039855	0.003648	0.000001	0.005961	2.2	7.1	9.7
120	-0.556638	-0.560493	0.000000	2.100982	59.015470	0.008145	0.000001	0.010238	2.2	6.7	9.2
121	-0.529213	-0.533376	0.000000	2.116933	58.974746	0.005806	0.000001	0.007572	2.1	6.9	9.4
122	-0.541007	-0.544868	0.000000	2.157912	58.870388	0.005388	0.000001	0.007494	3.3	5.5	9.2
123	-0.560092	-0.563983	0.000000	2.168580	58.843282	0.005109	0.000001	0.007507	3.4	6.5	10.4
124	-0.554892	-0.558822	0.000000	2.188578	58.792535	0.005260	0.000001	0.007217	2.2	6.4	8.9
125	-0.578599	-0.582428	0.000000	2.211957	58.733320	0.005336	0.000001	0.007359	2.1	5.9	8.4
126	-0.569723	-0.573765	0.000000	2.227283	58.694566	0.006274	0.000001	0.007816	2.2	6.5	9.1
127	-0.563348	-0.567219	0.000000	2.233580	58.678657	0.003744	0.000001	0.006140	2.2	7.6	10.2
128	-0.562552	-0.566106	0.000000	2.246068	58.647135	0.003898	0.000001	0.006065	2.3	6.8	9.6
129	-0.545378	-0.549215	0.000000	2.250509	58.635933	0.003452	0.000001	0.006435	2.2	5.7	8.4
130	-0.574519	-0.578159	0.000000	2.257817	58.617509	0.004963	0.000001	0.006528	2.9	6.0	9.3
131	-0.577894	-0.581684	0.000000	2.272397	58.580786	0.005014	0.000001	0.007100	3.0	5.7	9.1
132	-0.549914	-0.553635	0.000000	2.284187	58.551121	0.004331	0.000001	0.006605	2.8	5.6	8.8
133	-0.568074	-0.571994	0.000000	2.296419	58.520379	0.005924	0.000001	0.007573	2.2	6.9	9.6
134	-0.560849	-0.564489	0.000000	2.312148	58.480894	0.004408	0.000001	0.006904	3.4	6.4	10.2
135	-0.522423	-0.526299	0.000000	2.328618	58.439607	0.004472	0.000001	0.007080	2.3	7.0	9.7
136	-0.588092	-0.592431	0.000000	2.348945	58.388731	0.007949	0.000001	0.009576	2.5	5.8	8.7
137	-0.576066	-0.580380	0.000000	2.363385	58.352643	0.005066	0.000001	0.007779	10.8	15.3	26.9
138	-0.566436	-0.570576	0.000000	2.405073	58.248710	0.005264	0.000001	0.008040	9.0	12.6	22.0
139	-0.556169	-0.560084	0.000000	2.426885	58.194475	0.005613	0.000001	0.007249	7.1	9.5	17.1
140	-0.541717	-0.545873	0.000000	2.448300	58.141328	0.004799	0.000001	0.007922	3.7	6.0	10.1
141	-0.544635	-0.548809	0.000000	2.461724	58.108060	0.004924	0.000001	0.007462	2.1	8.5	11.1
142	-0.526450	-0.530237	0.000000	2.480706	58.061085	0.006186	0.000001	0.008102	2.1	6.1	8.6
143	-0.572759	-0.576753	0.000000	2.491175	58.035211	0.003929	0.000001	0.006865	2.1	7.3	9.8
144	-0.529813	-0.533687	0.000000	2.504481	58.002356	0.003881	0.000001	0.006659	2.6	5.8	8.8
145	-0.570478	-0.574388	0.000000	2.513505	57.980096	0.006758	0.000001	0.008476	2.9	6.2	9.6
146	-0.545832	-0.549797	0.000000	2.522155	57.958776	0.004646	0.000001	0.008077	2.1	5.9	8.4
147	-0.566557	-0.570392	0.000000	2.560853	57.863578	0.004169	0.000001	0.006936	2.5	6.4	9.3
148	-0.546951	-0.550999	0.000000	2.579927	57.816772	0.003735	0.000001	0.007039	2.2	6.5	9.1
149	-0.549233	-0.552868	0.000000	2.592145	57.786830	0.008027	0.000001	0.009058	3.5	5.7	9.6
150	-0.548779	-0.552849	0.000000	2.605992	57.752934	0.004718	0.000001	0.007283	2.2	6.7	9.2
151	-0.565514	-0.569327	0.000000	2.632450	57.688276	0.006083	0.000001	0.008027	2.8	5.5	8.7
152	-0.569240	-0.573424	0.000000	2.646585	57.653792	0.005101	0.000001	0.007865	2.4	7.9	10.7
153	-0.567742	-0.571608	0.000000	2.662257	57.615606	0.003903	0.000001	0.006713	2.1	5.9	8.4
154	-0.583230	-0.587019	0.000000	2.674360	57.586151	0.005677	0.000001	0.007838	2.9	5.7	9.1
155	-0.548187	-0.552155	0.000000	2.679905	57.572666	0.004984	0.000001	0.007027	2.4	6.7	9.5
156	-0.565779	-0.569704	0.000000	2.690895	57.545958	0.006584	0.000001	0.008589	2.2	5.7	8.3
157	-0.559178	-0.562851	0.000000	2.710745	57.497784	0.005602	0.000001	0.007959	2.1	6.7	9.2
158	-0.522455	-0.526336	0.000000	2.728170	57.455560	0.004205	0.000001	0.007047	2.1	5.5	8.0
159	-0.569615	-0.573475	0.000000	2.746598	57.410971	0.004158	0.000001	0.007194	2.2	7.3	10.0
160	-0.565581	-0.569318	0.000000	2.756379	57.387335	0.005243	0.000001	0.007457	2.1	5.5	8.0
161	-0.525693	-0.529421	0.000000	2.769348	57.356024	0.004470	0.000001	0.006986	2.2	11.6	14.2
162	-0.544476	-0.548309	0.000000	2.783926	57.320869	0.004050	0.000001	0.006835	4.2	6.8	11.5
163	-0.557805	-0.561526	0.000000	2.805897	57.267965	0.005558	0.000001	0.007402	2.3	10.6	13.4
164	-0.554686	-0.558519	0.000000	2.815487	57.244906	0.005706	0.000001	0.008039	4.3	7.2	12.4
165	-0.561682	-0.565342	0.000000	2.833086	57.202633	0.005097	0.000001	0.007218	4.4	6.2	10.9
166	-0.544656	-0.548492	0.000000	2.851871	57.157583	0.006428	0.000001	0.007289	3.2	9.4	13.0
167	-0.544410	-0.548452	0.000000	2.870076	57.113991	0.004097	0.000001	0.007465	3.1	10.1	13.6
168	-0.561860	-0.565626	0.000000	2.878928	57.092817	0.004525	0.000001	0.007086	3.4	7.5	11.3
169	-0.530950	-0.534433	0.000000	2.892560	57.060244	0.003029	0.000001	0.005938	4.0	10.3	14.8
170	-0.539522	-0.543103	0.000000	2.902500	57.036515	0.003743	0.000001	0.006477	5.9	11.6	17.9
171	-0.571008	-0.574458	0.000000	2.913610	57.010015	0.003749	0.000000	0.005893	5.2	10.4	16.0
172	-0.553896	-0.557293	0.000000	2.922780	56.988163	0.004457	0.000001	0.006504	4.1	10.1	14.6
173	-0.521327	-0.524972	0.000000	2.935864	56.957010	0.003402	0.000001	0.006230	3.1	10.4	13.9
174	-0.600555	-0.604118	0.000000	2.955801	56.909609	0.006434	0.000001	0.008311	3.5	10.8	14.7
175	-0.522595	-0.526426	0.000000	2.966614	56.883934	0.003376	0.000001	0.006471	3.6	11.0	15.1
176	-0.573840	-0.577441	0.000000	2.993963	56.819096	0.005196	0.000001	0.007021	3.3	11.2	15.0
177	-0.548252	-0.551858	0.000000	3.001098	56.802204	0.003530	0.000001	0.006091	3.6	6.5	10.6
178	-0.574233	-0.577749	0.000000	3.018390	56.761311	0.005435	0.000001	0.007253	2.9	5.6	8.9
179	-0.561770	-0.565482	0.000000	3.025775	56.743863	0.005064	0.000001	0.007332	2.1	7.4	9.8
180	-0.571373	-0.574982	0.000000	3.038425	56.714002	0.005724	0.000001	0.007469	2.1	5.7	8.2
181	-0.528518	-0.532250	0.000000	3.057804	56.668319	0.007602	0.000001	0.009393	2.1	8.7	11.2
182	-0.555978	-0.559839	0.000000	3.070950	56.637368	0.003860	0.000001	0.007007	4.1	9.2	13.8
183	-0.571475	-0.575342	0.000000	3.098686	56.572182	0.004856	0.000001	0.007652	3.7	7.6	11.8
184	-0.562298	-0.566320	0.000000	3.113128	56.538300	0.004501	0.000001	0.006956	3.3	5.7	9.5
185	-0.552588	-0.556305	0.000000	3.124433	56.511807	0.005714	0.000001	0.007245	2.8	6.0	9.2
186	-0.574936	-0.578567	0.000000	3.137853	56.480386	0.004343	0.000001	0.006408	3.9	7.1	11.5
187	-0.554730	-0.558531	0.000000	3.155012	56.440265	0.004116	0.000001	0.006340	4.3	7.8	12.5
188	-0.542822	-0.546504	0.000000	3.171372	56.402065	0.005944	0.000001	0.008019	2.3	5.9	8.6
189	-0.557809	-0.561545	0.000000	3.178184	56.386173	0.004309	0.000001	0.006899	3.1	6.9	10.5
190	-0.554010	-0.557639	0.000000	3.201684	56.331422	0.003642	0.000001	0.006409	2.1	8.1	10.6
191	-0.583121	-0.586833	0.000000	3.211076	56.309571	0.004414	0.000001	0.007175	2.7	5.4	8.5
192	-0.551293	-0.554881	0.000000	3.229593	56.266537	0.005534	0.000001	0.007324	2.1	7.5	10.0
193	-0.548656	-0.552094	0.000000	3.244884	56.231049	0.007592	0.000001	0.008524	2.1	5.4	7.8
194	-0.564448	-0.568306	0.000000	3.253163	56.211855	0.005282	0.000001	0.007472	2.8	6.1	9.2
195	-0.553342	-0.557179	0.000000	3.272143	56.167900	0.007017	0.000001	0.008444	2.0	5.5	8.0
196	-0.543529	-0.547142	0.000000	3.277640	56.155182	0.004546	0.000001	0.007021	2.6	6.6	9.6
197	-0.563817	-0.567699	0.000000	3.292711	56.120343	0.006336	0.000001	0.008739	2.1	6.7	9.2
198	-0.565032	-0.568760	0.000000	3.304094	56.094060	0.003788	0.000001	0.006721	2.1	5.4	7.9
199	-0.561121	-0.564820	0.000000	3.327767	56.039475	0.006022	0.000001	0.007955	2.1	6.9	9.5
200	-0.558964	-0.562534	0.000000	3.339575	56.012288	0.006563	0.000001	0.008517	2.1	5.6	8.1
201	-0.535955	-0.540064	0.000000	3.360928	55.963193	0.004940	0.000001	0.008156	2.0	9.2	11.6
202	-0.550689	-0.554445	0.000000	3.408523	55.854068	0.005169	0.000001	0.007228	2.1	5.4	7.8
203	-0.542854	-0.546583	0.000000	3.421050	55.825417	0.004515	0.000001	0.006883	3.4	5.5	9.3
204	-0.562659	-0.566335	0.000000	3.439139	55.784096	0.005482	0.000001	0.008280	2.1	14.5	17.0
205	-0.545108	-0.548822	0.000000	3.466766	55.721107	0.004000	0.000001	0.006822	10.8	17.7	29.2
206	-0.574487	-0.578342	0.000000	3.483304	55.683468	0.003751	0.000001	0.006825	93.8	49.3	143.7
207	-0.537648	-0.541288	0.000000	3.492683	55.662145	0.004611	0.000001	0.007131	61.1	15.2	77.4
208	-0.536201	-0.539634	0.000000	3.507040	55.629536	0.005237	0.000001	0.007018	15.3	22.4	38.3
209	-0.556611	-0.560349	0.000000	3.514643	55.612283	0.003957	0.000001	0.006960	9.1	15.5	25.4
210	-0.558154	-0.561778	0.000000	3.527890	55.582248	0.006057	0.000001	0.008030	21.9	41.3	64.2
211	-0.580860	-0.584229	0.000000	3.545298	55.542828	0.003812	0.000001	0.005923	14.5	21.5	36.8
212	-0.558545	-0.562238	0.000000	3.557958	55.514195	0.006141	0.000001	0.008191	5.5	12.8	18.8
213	-0.547551	-0.551180	0.000000	3.562959	55.502893	0.003900	0.000001	0.006397	3.5	11.1	15.0
214	-0.566088	-0.569822	0.000000	3.584384	55.454524	0.004436	0.000001	0.007291	3.2	10.9	14.5
215	-0.565549	-0.569246	0.000000	3.591588	55.438277	0.008841	0.000001	0.010482	3.4	11.1	14.9
216	-0.552075	-0.555972	0.000000	3.610762	55.395086	0.004354	0.000001	0.006908	3.3	10.4	14.1
217	-0.559293	-0.563040	0.000000	3.645650	55.316670	0.005256	0.000001	0.007452	3.4	11.5	15.3
218	-0.516438	-0.520137	0.000000	3.656258	55.292872	0.003389	0.000001	0.006464	3.3	16.0	19.8
219	-0.544663	-0.548231	0.000000	3.673933	55.253262	0.004848	0.000001	0.007305	3.5	11.5	15.5
220	-0.575981	-0.579806	0.000000	3.686941	55.224148	0.004310	0.000001	0.006708	4.2	18.8	23.5
221	-0.561986	-0.565549	0.000000	3.696995	55.201667	0.007498	0.000001	0.009190	7.2	12.0	19.7
222	-0.533777	-0.537527	0.000000	3.705625	55.182385	0.005412	0.000001	0.007752	13.9	8.6	23.1
223	-0.549753	-0.553694	0.000000	3.731732	55.124133	0.004252	0.000001	0.007088	5.5	10.9	16.9
224	-0.521987	-0.525505	0.000000	3.744795	55.095033	0.003560	0.000001	0.006019	4.1	5.6	10.1
225	-0.572035	-0.575374	0.000000	3.755466	55.071282	0.003952	0.000001	0.006382	3.0	6.9	10.2
226	-0.557469	-0.560977	0.000000	3.763812	55.052722	0.005771	0.000001	0.007403	2.1	6.6	9.2
227	-0.567651	-0.571290	0.000000	3.773406	55.031403	0.008125	0.000001	0.009170	2.7	7.3	10.5
228	-0.579760	-0.583811	0.000000	3.778726	55.019587	0.004379	0.000001	0.007285	2.2	8.6	11.2
229	-0.540606	-0.544373	0.000000	3.796710	54.979683	0.003948	0.000001	0.006781	2.1	8.4	11.1
230	-0.573578	-0.577271	0.000000	3.804796	54.961762	0.004612	0.000001	0.006944	3.4	7.6	11.4
231	-0.568155	-0.571736	0.000000	3.811764	54.946327	0.006540	0.000001	0.008179	2.1	7.9	10.4
232	-0.541961	-0.545447	0.000000	3.833808	54.897551	0.005812	0.000001	0.007685	3.2	12.9	16.6
233	-0.551058	-0.554977	0.000000	3.846246	54.870072	0.005031	0.000001	0.008146	3.2	12.2	15.7
234	-0.527738	-0.531763	0.000000	3.861358	54.836719	0.006297	0.000001	0.008845	3.3	7.7	11.5
235	-0.531404	-0.535109	0.000000	3.877807	54.800461	0.006237	0.000001	0.008167	3.4	10.4	14.5
236	-0.550453	-0.553912	0.000000	3.907534	54.735057	0.005764	0.000001	0.007506	3.7	10.5	14.7
237	-0.559735	-0.563511	0.000000	3.931454	54.682543	0.003833	0.000001	0.006618	3.7	6.5	10.6
238	-0.545542	-0.548954	0.000000	3.943675	54.655750	0.004566	0.000001	0.007042	4.0	9.9	14.4
239	-0.556624	-0.559979	0.000000	3.960147	54.619681	0.005439	0.000001	0.007110	4.6	9.8	14.9
240	-0.525993	-0.529712	0.000000	3.969924	54.598294	0.005300	0.000001	0.007491	3.5	8.1	11.9
241	-0.543326	-0.546919	0.000000	3.988398	54.557929	0.003440	0.000001	0.006449	3.3	11.1	14.8
242	-0.566220	-0.569724	0.000000	4.005480	54.520660	0.003583	0.000001	0.006358	3.5	10.7	14.6
243	-0.536043	-0.539496	0.000000	4.018246	54.492841	0.007175	0.000001	0.008524	3.6	9.9	13.9
244	-0.575038	-0.578844	0.000000	4.028532	54.470446	0.004000	0.000001	0.006529	2.1	5.7	8.3
245	-0.542826	-0.546456	0.000000	4.048268	54.427526	0.004917	0.000001	0.007189	2.7	5.5	8.6
246	-0.545176	-0.548807	0.000000	4.057406	54.407677	0.003751	0.000001	0.006595	2.1	6.5	9.0
247	-0.561078	-0.564711	0.000000	4.077234	54.364660	0.005986	0.000001	0.007964	2.1	5.6	8.1
248	-0.556402	-0.560158	0.000000	4.100366	54.314557	0.006402	0.000001	0.008740	2.1	7.1	9.6
249	-0.547005	-0.550721	0.000000	4.131787	54.246651	0.004775	0.000001	0.006894	2.1	8.8	11.7
250	-0.572784	-0.576077	0.000000	4.154423	54.197836	0.005719	0.000001	0.007660	2.6	6.3	9.3
251	-0.520011	-0.523828	0.000000	4.171757	54.160514	0.005608	0.000001	0.008094	2.1	6.6	9.1
252	-0.562129	-0.565777	0.000000	4.198955	54.102055	0.002991	0.000001	0.006297	2.2	5.5	8.0
253	-0.531194	-0.534418	0.000000	4.218346	54.060457	0.004403	0.000000	0.006455	2.2	6.0	8.6
254	-0.569600	-0.573163	0.000000	4.227773	54.040255	0.004441	0.000001	0.006869	2.2	5.5	8.1
255	-0.535424	-0.538722	0.000000	4.246497	54.000176	0.003879	0.000000	0.005900	4.1	5.6	10.1
