"","","","","","","",""
"","","","","","","",""
"edge points group 1","point 2","x","x","14.318","x","x","x"
"","point 5","x","x","7.3485","9.055400000000001","x","27.092"
"","point 9","15.811","19.824","16.673","32.634","x","26.038"
"","point 12","x","x","21.048","x","x","9.1104"
"","point 15","15.78","x","4.899","18.974","8.2462","9"
"","point 17","9.2736","11.446","2.2361","20.833","20.421","11.576"
"","point 18","7.5498","8.6023","3","13.565","7.3485","21.119"
"edge points group 2 ","point 11","9.2736","6.1644","4.1231","x","7.3485","18.788"
"","point 16","5.831","10.296","9.1652","11.747","11.446","8.124000000000001"
"","point 19","8.3066","x","x","17.029","17.378","x"
"","","","","","","",""
"","","","","","","",""
"central points","point 1","x","x","17.059","11.533","14.457","x"
"","point 3","7.2801","9.8995","25.652","8.831799999999999","8.660299999999999","10.817"
"","point 4","18.028","16.733","7.6811","20.322","11.446","7.1414"
"","point 6","x","x","29.155","14.765","x","12.083"
"","point 7","11.662","9.433999999999999","21","13.153","9.8489","9.2195"
"","point 8","x","x","17.833","12.124","x","3.3166"
"","point 10","9","6.1644","12.806","19.416","6","15.232"
"","point 13","11.747","7.0711","9.486800000000001","14.213","6.7823","5.831"
"","point 14","x","x","7.2801","22.45","10.63","x"
"","point 20","4.2426","4.6904","16.031","x","x","x"
