1:ItNr	2:Metric	2:Metric0	2:Metric1	3a:Time	3b:StepSize	4:||Gradient0||	4:||Gradient1||	4:||Gradient||	Time0[ms]	Time1[ms]	Time[ms]
0	-1.784423	-1.785844	0.000000	0.000000	114.366505	0.016236	0.000000	0.015845	2.8	6.6	73.0
1	-1.783379	-1.789117	0.000001	0.000000	114.366505	0.022880	0.000001	0.026412	2.9	6.7	10.0
2	-1.798225	-1.803527	0.000001	1.000000	109.168027	0.032482	0.000001	0.035226	2.7	6.7	9.8
3	-1.764841	-1.774390	0.000001	2.000000	104.421591	0.031223	0.000001	0.036095	3.2	6.3	9.8
4	-1.755452	-1.760322	0.000000	3.000000	100.070692	0.030652	0.000001	0.033753	2.5	6.4	9.5
5	-1.767151	-1.772293	0.000001	4.000000	96.067864	0.028063	0.000001	0.030979	2.5	7.8	10.6
6	-1.762233	-1.766675	0.000000	5.000000	92.372946	0.025659	0.000001	0.028927	2.9	7.1	10.4
7	-1.810283	-1.814941	0.000000	6.000000	88.951726	0.030083	0.000001	0.033154	2.4	7.0	9.8
8	-1.803630	-1.808493	0.000000	7.000000	85.774878	0.031204	0.000001	0.033714	2.3	7.1	9.8
9	-1.810713	-1.815151	0.000000	8.000000	82.817124	0.029611	0.000001	0.032924	2.6	6.7	9.6
10	-1.772296	-1.775898	0.000000	9.000000	80.056553	0.030831	0.000001	0.033493	2.5	7.2	10.0
11	-1.791875	-1.795514	0.000000	10.000000	77.474084	0.023794	0.000001	0.026263	2.5	6.7	9.5
12	-1.789343	-1.791929	0.000000	11.000000	75.053019	0.021134	0.000000	0.023087	2.4	6.6	9.4
13	-1.789262	-1.791954	0.000000	12.000000	72.778685	0.022688	0.000000	0.024967	2.5	7.2	10.1
14	-1.793283	-1.795654	0.000000	13.000000	70.638135	0.023428	0.000000	0.025291	2.6	8.9	11.9
15	-1.835547	-1.837773	0.000000	14.000000	68.619903	0.021574	0.000000	0.023036	3.5	6.6	10.5
16	-1.773486	-1.775864	0.000000	15.000000	66.713794	0.017740	0.000000	0.019288	4.1	7.9	12.3
17	-1.832453	-1.834631	0.000000	16.000000	64.910719	0.016842	0.000000	0.018679	2.3	8.1	10.8
18	-1.771585	-1.773275	0.000000	17.000000	63.202542	0.015166	0.000000	0.016183	2.6	7.2	10.2
19	-1.791569	-1.793290	0.000000	18.000000	61.581964	0.016469	0.000000	0.017717	2.7	7.6	10.7
20	-1.799391	-1.800942	0.000000	19.000000	60.042415	0.021301	0.000000	0.022189	3.2	6.6	10.2
21	-1.781004	-1.783251	0.000000	20.000000	58.577966	0.020650	0.000000	0.022481	2.9	6.9	10.2
22	-1.801523	-1.803383	0.000000	21.000000	57.183252	0.016262	0.000000	0.017641	2.9	6.6	9.8
23	-1.810998	-1.812683	0.000000	22.000000	55.853409	0.012325	0.000000	0.013461	2.9	10.1	13.3
24	-1.788510	-1.789740	0.000000	23.000000	54.584014	0.016179	0.000000	0.016583	2.7	7.6	10.6
25	-1.802226	-1.803990	0.000000	24.000000	53.371036	0.018254	0.000000	0.019449	2.5	8.0	10.9
26	-1.773488	-1.774927	0.000000	25.000000	52.210796	0.019792	0.000000	0.020377	2.8	6.4	9.5
27	-1.790820	-1.792553	0.000000	26.000000	51.099928	0.017012	0.000000	0.018175	2.6	10.6	13.6
28	-1.810313	-1.811771	0.000000	27.000000	50.035346	0.011134	0.000000	0.012048	3.1	7.5	11.0
29	-1.787788	-1.788983	0.000000	28.000000	49.014216	0.015829	0.000000	0.016136	2.3	7.2	9.9
30	-1.791775	-1.793221	0.000000	28.999874	48.034053	0.013365	0.000000	0.014368	2.4	6.9	9.7
31	-1.827480	-1.828620	0.000000	29.999874	47.092206	0.013221	0.000000	0.013850	2.6	7.5	10.4
32	-1.832703	-1.833885	0.000000	30.999874	46.186585	0.011940	0.000000	0.012375	2.6	6.6	9.6
33	-1.817857	-1.819119	0.000000	31.999874	45.315137	0.011831	0.000000	0.012899	3.3	6.5	10.1
34	-1.818204	-1.819222	0.000000	32.999874	44.475967	0.012397	0.000000	0.012645	2.6	7.3	10.2
35	-1.795744	-1.796883	0.000000	33.999866	43.667317	0.012103	0.000000	0.013044	2.7	6.3	9.3
36	-1.816171	-1.817143	0.000000	34.999866	42.887542	0.012552	0.000000	0.013225	2.7	9.2	12.2
37	-1.811228	-1.812148	0.000000	35.999866	42.135127	0.012358	0.000000	0.013003	2.8	6.6	9.8
38	-1.824933	-1.825937	0.000000	36.999866	41.408658	0.011429	0.000000	0.011981	2.9	6.5	9.7
39	-1.782438	-1.783446	0.000000	37.999467	40.707089	0.010749	0.000000	0.011172	4.3	6.9	11.5
40	-1.804373	-1.805442	0.000000	38.999467	40.028632	0.011846	0.000000	0.012386	2.5	8.0	10.8
41	-1.783476	-1.784512	0.000000	39.998458	39.373071	0.009876	0.000000	0.010450	2.7	6.6	9.6
42	-1.824762	-1.825713	0.000000	40.998451	38.738010	0.009315	0.000000	0.010100	2.7	6.6	9.6
43	-1.818329	-1.819199	0.000000	41.573148	38.382224	0.009381	0.000000	0.009796	3.9	11.0	15.2
44	-1.815403	-1.816250	0.000000	42.571547	37.779427	0.009996	0.000000	0.010261	2.6	6.4	9.4
45	-1.829123	-1.830070	0.000000	43.571346	37.194464	0.011850	0.000000	0.011803	2.6	6.5	9.4
46	-1.839639	-1.840812	0.000000	44.570517	36.627691	0.011764	0.000000	0.012464	3.4	6.3	10.1
47	-1.818851	-1.819876	0.000000	45.570516	36.077482	0.009244	0.000000	0.009793	2.6	6.7	9.7
48	-1.814564	-1.815554	0.000000	46.556598	35.550882	0.011127	0.000000	0.011571	2.6	6.3	9.3
49	-1.786927	-1.787854	0.000000	47.545371	35.038057	0.013587	0.000000	0.014102	3.0	6.4	9.7
50	-1.831421	-1.832430	0.000000	48.545371	34.534241	0.012154	0.000000	0.012265	2.9	7.6	10.8
51	-1.815211	-1.816315	0.000000	49.545371	34.044709	0.010689	0.000000	0.011442	3.7	6.6	10.7
52	-1.835138	-1.836092	0.000000	50.545365	33.568864	0.010398	0.000000	0.010405	2.7	6.3	9.3
53	-1.840135	-1.841159	0.000000	51.358667	33.191554	0.012263	0.000000	0.012128	3.0	6.9	10.4
54	-1.811022	-1.812216	0.000000	52.357443	32.739644	0.009036	0.000000	0.009797	2.5	6.5	9.3
55	-1.786407	-1.787400	0.000000	53.356036	32.299955	0.010419	0.000000	0.010565	2.6	6.5	9.5
56	-1.847725	-1.848794	0.000000	54.018498	32.014725	0.013656	0.000000	0.014625	2.4	7.4	10.1
57	-1.839416	-1.840280	0.000000	55.018493	31.593583	0.014161	0.000000	0.014295	2.5	6.4	9.3
58	-1.800761	-1.801711	0.000000	56.018493	31.183376	0.010366	0.000000	0.010504	2.5	7.8	10.6
59	-1.819933	-1.820982	0.000000	57.015254	30.784961	0.014890	0.000000	0.015264	2.4	7.5	10.2
60	-1.786343	-1.787346	0.000000	58.015253	30.395354	0.009953	0.000000	0.010237	2.4	7.5	10.2
61	-1.829254	-1.830294	0.000000	59.015246	30.015487	0.008479	0.000000	0.009103	2.4	7.8	10.5
62	-1.800260	-1.801169	0.000000	59.746756	29.743568	0.011898	0.000000	0.012088	2.5	7.2	10.1
63	-1.837452	-1.838403	0.000000	59.805564	29.721921	0.012134	0.000000	0.012760	2.5	8.0	10.8
64	-1.805872	-1.806676	0.000000	60.805564	29.358597	0.010859	0.000000	0.011175	3.6	6.5	10.4
65	-1.804970	-1.805768	0.000000	61.805564	29.004049	0.009686	0.000000	0.009802	3.2	6.7	10.3
66	-1.756540	-1.757410	0.000000	62.800496	28.659694	0.010301	0.000000	0.010542	2.7	6.8	9.8
67	-1.833355	-1.834251	0.000000	63.582692	28.394658	0.012045	0.000000	0.012240	3.4	7.6	11.4
68	-1.781330	-1.782231	0.000000	64.507302	28.087620	0.010973	0.000000	0.011472	2.4	7.5	10.2
69	-1.736618	-1.737431	0.000000	65.507301	27.762935	0.010327	0.000000	0.010339	2.7	8.0	11.0
70	-1.797557	-1.798410	0.000000	66.507011	27.445762	0.010962	0.000000	0.010793	2.8	7.4	10.6
71	-1.822607	-1.823556	0.000000	67.506000	27.135975	0.013282	0.000000	0.013759	2.9	7.0	10.3
72	-1.788823	-1.789697	0.000000	68.505991	26.832803	0.009415	0.000000	0.009749	2.9	7.1	10.3
73	-1.828909	-1.829742	0.000000	69.216264	26.621548	0.012263	0.000000	0.012465	2.9	6.6	9.9
74	-1.827952	-1.828796	0.000000	69.144981	26.642599	0.010438	0.000000	0.010694	3.2	7.1	10.7
75	-1.813014	-1.813870	0.000000	69.328886	26.588356	0.011624	0.000000	0.011436	2.5	7.3	10.2
76	-1.775535	-1.776546	0.000000	70.246320	26.321024	0.007825	0.000000	0.008282	2.4	6.7	9.5
77	-1.802391	-1.803282	0.000000	71.140624	26.065556	0.011185	0.000000	0.011706	5.0	8.9	14.2
78	-1.820501	-1.821327	0.000000	72.062557	25.807335	0.009503	0.000000	0.009649	3.2	7.1	10.8
79	-1.849259	-1.850152	0.000000	73.057467	25.534353	0.010775	0.000000	0.010875	3.1	6.5	9.9
80	-1.835013	-1.835930	0.000000	74.057097	25.265832	0.012068	0.000000	0.012569	3.2	6.5	10.1
81	-1.815739	-1.816585	0.000000	75.057090	25.002804	0.011749	0.000000	0.012077	3.1	8.5	11.9
82	-1.810092	-1.810961	0.000000	76.056299	24.745396	0.008198	0.000000	0.008180	3.0	6.9	10.3
83	-1.803274	-1.804146	0.000000	76.463885	24.641913	0.010762	0.000000	0.011013	2.5	6.7	9.6
84	-1.767912	-1.768735	0.000000	77.389008	24.410213	0.009167	0.000000	0.009344	3.1	6.8	10.2
85	-1.794895	-1.795729	0.000000	77.398296	24.407908	0.011359	0.000000	0.011626	2.5	6.6	9.5
86	-1.771545	-1.772377	0.000000	78.138062	24.225777	0.008688	0.000000	0.009211	3.5	11.8	15.6
87	-1.831419	-1.832186	0.000000	78.718474	24.084771	0.010864	0.000000	0.011094	3.3	6.5	10.1
88	-1.799646	-1.800406	0.000000	79.578980	23.878713	0.009995	0.000000	0.010279	2.7	6.8	9.9
89	-1.804958	-1.805721	0.000000	80.578030	23.643859	0.008418	0.000000	0.008322	2.9	6.7	9.9
90	-1.816791	-1.817578	0.000000	81.570552	23.415069	0.008724	0.000000	0.009184	2.6	6.4	9.4
91	-1.799757	-1.800455	0.000000	82.349171	23.238663	0.011957	0.000000	0.011767	2.5	6.6	9.4
92	-1.829014	-1.829872	0.000000	82.324238	23.244271	0.010949	0.000000	0.011439	2.9	6.4	9.7
93	-1.816167	-1.816937	0.000000	83.324109	23.021492	0.008545	0.000000	0.008938	2.7	6.8	9.8
94	-1.795684	-1.796409	0.000000	84.072773	22.857459	0.009560	0.000000	0.009882	2.7	6.6	9.7
95	-1.772334	-1.773052	0.000000	84.980563	22.661671	0.010935	0.000000	0.010910	2.6	6.4	9.4
96	-1.865790	-1.866565	0.000000	85.032309	22.650611	0.010816	0.000000	0.010999	2.9	6.4	9.6
97	-1.755164	-1.755945	0.000000	86.032192	22.439012	0.010944	0.000000	0.011086	2.5	8.1	10.9
98	-1.827343	-1.828136	0.000000	85.976565	22.450680	0.009420	0.000000	0.009703	3.1	6.4	9.8
99	-1.811538	-1.812306	0.000000	86.846916	22.269497	0.009722	0.000000	0.009996	4.1	6.9	11.4
100	-1.825301	-1.826026	0.000000	87.567130	22.121766	0.012163	0.000000	0.012475	3.1	6.5	9.9
101	-1.789672	-1.790407	0.000000	88.567123	21.919866	0.012107	0.000000	0.012001	2.6	6.5	9.4
102	-1.845804	-1.846651	0.000000	89.567117	21.721617	0.012278	0.000000	0.011998	2.6	6.4	9.3
103	-1.830833	-1.831796	0.000000	90.154569	21.606819	0.008723	0.000000	0.009168	2.4	6.7	9.5
104	-1.833694	-1.834621	0.000000	90.927449	21.457619	0.009857	0.000000	0.010532	2.5	6.4	9.3
105	-1.799751	-1.800531	0.000000	90.896808	21.463495	0.011589	0.000000	0.011861	2.9	7.6	10.9
106	-1.859158	-1.859948	0.000000	91.798916	21.291841	0.011974	0.000000	0.012021	2.4	6.5	9.3
107	-1.832848	-1.833632	0.000000	92.798913	21.104741	0.010871	0.000000	0.010778	2.4	6.5	9.3
108	-1.808241	-1.809048	0.000000	93.798566	20.920963	0.008853	0.000000	0.009087	2.5	7.6	10.5
109	-1.823316	-1.824119	0.000000	94.724910	20.753497	0.011232	0.000000	0.011577	3.6	7.0	11.1
110	-1.836781	-1.837583	0.000000	95.678140	20.583946	0.009469	0.000000	0.009615	3.3	6.5	10.0
111	-1.809419	-1.810158	0.000000	96.635459	20.416434	0.008696	0.000000	0.008975	2.8	6.6	9.7
112	-1.842303	-1.843045	0.000000	97.010578	20.351537	0.008819	0.000000	0.008683	2.5	7.0	9.8
113	-1.798275	-1.799060	0.000000	97.167008	20.324595	0.007846	0.000000	0.008035	2.8	6.7	9.8
114	-1.774628	-1.775372	0.000000	97.584887	20.252974	0.009537	0.000000	0.009552	3.4	6.7	10.4
115	-1.818645	-1.819415	0.000000	98.565358	20.086893	0.008574	0.000000	0.009004	3.0	7.4	10.7
116	-1.780538	-1.781258	0.000000	99.265032	19.970032	0.008985	0.000000	0.009196	2.5	7.1	10.0
117	-1.827419	-1.828139	0.000000	100.188457	19.817866	0.010831	0.000000	0.010739	3.3	7.6	11.3
118	-1.803786	-1.804543	0.000000	101.092275	19.671159	0.008818	0.000000	0.009015	2.3	7.7	10.4
119	-1.841275	-1.842054	0.000000	101.758354	19.564425	0.011959	0.000000	0.011972	3.6	7.6	11.6
120	-1.802595	-1.803433	0.000000	102.744649	19.408489	0.010918	0.000000	0.011129	3.2	6.5	10.0
121	-1.747430	-1.748193	0.000000	103.744588	19.252912	0.007669	0.000000	0.007605	3.7	6.5	10.6
122	-1.786654	-1.787432	0.000000	104.648702	19.114377	0.009785	0.000000	0.009794	3.2	6.4	10.0
123	-1.853230	-1.854079	0.000000	105.451673	18.993000	0.011522	0.000000	0.011680	2.7	6.5	9.6
124	-1.819382	-1.820219	0.000000	105.394888	19.001533	0.009607	0.000000	0.009967	2.6	7.4	10.3
125	-1.770844	-1.771609	0.000000	106.383828	18.854015	0.011241	0.000000	0.011016	2.4	6.4	9.2
126	-1.763613	-1.764479	0.000000	107.354196	18.711477	0.009757	0.000000	0.010017	2.7	6.7	9.8
127	-1.858222	-1.859091	0.000000	108.312979	18.572742	0.009906	0.000000	0.009999	3.3	9.5	13.1
128	-1.836865	-1.837735	0.000000	109.164417	18.451253	0.011593	0.000000	0.012077	2.5	8.4	11.3
129	-1.811001	-1.811800	0.000000	110.162482	18.310851	0.012578	0.000000	0.012906	3.2	6.8	10.4
130	-1.815900	-1.816670	0.000000	111.143743	18.174879	0.011175	0.000000	0.010993	2.8	6.8	10.0
131	-1.791939	-1.792758	0.000000	111.820688	18.082248	0.008784	0.000000	0.008747	2.4	6.9	9.7
132	-1.787033	-1.787861	0.000000	112.299639	18.017278	0.008809	0.000000	0.009081	2.5	6.7	9.5
133	-1.839659	-1.840453	0.000000	113.251765	17.889497	0.008454	0.000000	0.008417	3.5	11.7	15.5
134	-1.826631	-1.827424	0.000000	113.626010	17.839767	0.008717	0.000000	0.008978	4.5	10.2	15.2
135	-1.807820	-1.808612	0.000000	114.604131	17.711087	0.008584	0.000000	0.008628	8.6	15.1	24.1
136	-1.818751	-1.819564	0.000000	115.128936	17.642807	0.009936	0.000000	0.010235	3.5	11.7	15.5
137	-1.820048	-1.820842	0.000000	115.630798	17.578003	0.009773	0.000000	0.010068	2.6	6.5	9.3
138	-1.830557	-1.831297	0.000000	116.630751	17.450291	0.009402	0.000000	0.009393	2.7	6.5	9.4
139	-1.829543	-1.830326	0.000000	116.840789	17.423700	0.008971	0.000000	0.009039	2.5	6.4	9.3
140	-1.835716	-1.836477	0.000000	117.653513	17.321570	0.012014	0.000000	0.012177	2.5	6.8	9.7
141	-1.794695	-1.795447	0.000000	118.652621	17.197648	0.008342	0.000000	0.008545	3.8	6.9	11.0
142	-1.789267	-1.789981	0.000000	118.616691	17.202074	0.008239	0.000000	0.008801	2.6	7.4	10.4
143	-1.792638	-1.793327	0.000000	119.067921	17.146657	0.012377	0.000000	0.012307	2.8	6.8	9.9
144	-1.832330	-1.833067	0.000000	119.060581	17.147556	0.012446	0.000000	0.012466	3.3	6.4	10.2
145	-1.825282	-1.825970	0.000000	120.060581	17.025994	0.008374	0.000000	0.008387	2.4	6.8	9.6
146	-1.838065	-1.838814	0.000000	121.032738	16.909458	0.009948	0.000000	0.010292	3.0	6.5	9.9
147	-1.819463	-1.820129	0.000000	121.881795	16.808976	0.009892	0.000000	0.009756	2.4	8.9	11.7
148	-1.787399	-1.788155	0.000000	122.875045	16.692934	0.008975	0.000000	0.009179	2.4	6.9	9.7
149	-1.806966	-1.807672	0.000000	122.899126	16.690140	0.009017	0.000000	0.009023	2.6	6.8	9.7
150	-1.792438	-1.793160	0.000000	123.793194	16.587082	0.009202	0.000000	0.009558	2.5	6.8	9.6
151	-1.777940	-1.778639	0.000000	123.778193	16.588801	0.010074	0.000000	0.010653	2.5	6.9	9.8
152	-1.820476	-1.821076	0.000000	123.816161	16.584452	0.008850	0.000000	0.008806	2.5	6.9	9.8
153	-1.791544	-1.792161	0.000000	124.677636	16.486378	0.011112	0.000000	0.010888	2.9	6.5	9.9
154	-1.784065	-1.784748	0.000000	124.776086	16.475244	0.009950	0.000000	0.009796	3.4	6.9	10.6
155	-1.851828	-1.852546	0.000000	125.757219	16.365100	0.008756	0.000000	0.008875	2.4	7.1	9.8
156	-1.817393	-1.818122	0.000000	126.750974	16.255031	0.010370	0.000000	0.010489	2.4	6.7	9.5
157	-1.831144	-1.831818	0.000000	126.693632	16.261342	0.008781	0.000000	0.008794	2.5	7.9	10.7
158	-1.828243	-1.828972	0.000000	127.569781	16.165445	0.010713	0.000000	0.010539	2.4	6.9	9.6
159	-1.819246	-1.819993	0.000000	128.439351	16.071380	0.009931	0.000000	0.009766	2.5	7.1	9.9
160	-1.794630	-1.795424	0.000000	128.478560	16.067164	0.008374	0.000000	0.008409	3.0	6.7	10.0
161	-1.842414	-1.843214	0.000000	128.425571	16.072862	0.007962	0.000000	0.008289	3.1	6.5	10.1
162	-1.818496	-1.819229	0.000000	129.223047	15.987537	0.009734	0.000000	0.009944	2.6	7.8	10.8
163	-1.832575	-1.833292	0.000000	129.158191	15.994443	0.009594	0.000000	0.009532	2.6	6.4	9.3
164	-1.806052	-1.806789	0.000000	130.090968	15.895699	0.008988	0.000000	0.008934	3.0	6.3	9.6
165	-1.801891	-1.802657	0.000000	130.555169	15.847012	0.011144	0.000000	0.011252	3.0	6.5	9.8
166	-1.851378	-1.852153	0.000000	130.812336	15.820168	0.012143	0.000000	0.012023	2.6	6.5	9.4
167	-1.790215	-1.790991	0.000000	131.812163	15.716659	0.010325	0.000000	0.010530	3.6	6.5	10.5
168	-1.800472	-1.801214	0.000000	132.807937	15.614907	0.010296	0.000000	0.010334	4.2	6.8	11.3
169	-1.854826	-1.855614	0.000000	133.090554	15.586268	0.009842	0.000000	0.010138	2.5	7.0	9.9
170	-1.829435	-1.830192	0.000000	134.069954	15.487827	0.009834	0.000000	0.010069	2.4	7.5	10.3
171	-1.797649	-1.798326	0.000000	134.508664	15.444134	0.009587	0.000000	0.009728	2.4	7.5	10.2
172	-1.848964	-1.849680	0.000000	135.143449	15.381347	0.008871	0.000000	0.009276	2.3	8.4	11.2
173	-1.843666	-1.844332	0.000000	135.894083	15.307758	0.010411	0.000000	0.010353	2.5	6.8	9.6
174	-1.771663	-1.772387	0.000000	135.923601	15.304878	0.006959	0.000000	0.006931	2.7	6.5	9.5
175	-1.836408	-1.837098	0.000000	136.094649	15.288214	0.009565	0.000000	0.009746	4.3	7.6	12.3
176	-1.775172	-1.775872	0.000000	136.294704	15.268770	0.011045	0.000000	0.010787	2.5	7.0	9.8
177	-1.813048	-1.813809	0.000000	137.280224	15.173700	0.011949	0.000000	0.011716	2.5	6.5	9.4
178	-1.867448	-1.868276	0.000000	137.712910	15.132333	0.009461	0.000000	0.009681	2.4	8.6	11.3
179	-1.834910	-1.835710	0.000000	137.778961	15.126038	0.008865	0.000000	0.008995	2.4	7.4	10.2
180	-1.800257	-1.801001	0.000000	137.796923	15.124327	0.007942	0.000000	0.008136	3.8	6.5	10.7
181	-1.797616	-1.798331	0.000000	137.825609	15.121595	0.008361	0.000000	0.008783	2.9	6.6	9.8
182	-1.824678	-1.825380	0.000000	138.254366	15.080884	0.009341	0.000000	0.009307	2.7	6.6	9.7
183	-1.838517	-1.839248	0.000000	138.852371	15.024467	0.008294	0.000000	0.008213	2.6	6.4	9.4
184	-1.791900	-1.792629	0.000000	138.864983	15.023281	0.012803	0.000000	0.013143	2.6	8.2	11.0
185	-1.823544	-1.824228	0.000000	139.725720	14.942827	0.010500	0.000000	0.010601	2.5	6.5	9.3
186	-1.815100	-1.815785	0.000000	140.674141	14.855168	0.011298	0.000000	0.011381	3.1	10.2	13.7
187	-1.834080	-1.834771	0.000000	141.649502	14.766086	0.010679	0.000000	0.010828	2.7	7.2	10.3
188	-1.827301	-1.827980	0.000000	141.578812	14.772507	0.012922	0.000000	0.012669	2.4	8.8	11.5
189	-1.831268	-1.832056	0.000000	142.567224	14.683239	0.010252	0.000000	0.010404	2.6	6.7	9.6
190	-1.808411	-1.809141	0.000000	143.566989	14.594036	0.009829	0.000000	0.010133	2.5	6.8	9.7
191	-1.815265	-1.815969	0.000000	143.504612	14.599570	0.009919	0.000000	0.010003	2.5	8.8	11.7
192	-1.825055	-1.825778	0.000000	143.655652	14.586178	0.010237	0.000000	0.010014	3.2	6.5	10.1
193	-1.816945	-1.817672	0.000000	143.650090	14.586670	0.009104	0.000000	0.009232	2.8	9.0	12.3
194	-1.827850	-1.828585	0.000000	144.610679	14.502064	0.009395	0.000000	0.009296	2.7	6.5	9.5
195	-1.816403	-1.817130	0.000000	145.593461	14.416512	0.008603	0.000000	0.008510	2.4	7.1	9.8
196	-1.815246	-1.816000	0.000000	145.536036	14.421483	0.008940	0.000000	0.009105	2.3	7.1	9.8
197	-1.801636	-1.802411	0.000000	146.445577	14.343147	0.008997	0.000000	0.009039	2.8	6.7	9.8
198	-1.804779	-1.805535	0.000000	146.539679	14.335091	0.007819	0.000000	0.007856	2.6	7.4	10.3
199	-1.760754	-1.761455	0.000000	146.806109	14.312331	0.009695	0.000000	0.009839	2.5	6.8	9.7
200	-1.795276	-1.795984	0.000000	146.868770	14.306989	0.010097	0.000000	0.010363	2.5	6.9	9.7
201	-1.811219	-1.811926	0.000000	147.400626	14.261803	0.009398	0.000000	0.009680	3.3	7.4	11.1
202	-1.821281	-1.821960	0.000000	148.315662	14.184728	0.008890	0.000000	0.008704	2.6	8.1	11.1
203	-1.819371	-1.820073	0.000000	149.247313	14.107104	0.008346	0.000000	0.008406	3.2	6.8	10.4
204	-1.788197	-1.788861	0.000000	150.097315	14.037021	0.008720	0.000000	0.008846	2.5	6.8	9.6
205	-1.844724	-1.845404	0.000000	150.589711	13.996740	0.010134	0.000000	0.010190	2.4	6.9	9.7
206	-1.830227	-1.830916	0.000000	151.528908	13.920546	0.008669	0.000000	0.008875	2.9	7.4	10.6
207	-1.795097	-1.795755	0.000000	152.391896	13.851262	0.008412	0.000000	0.008479	2.4	7.8	10.6
208	-1.834790	-1.835462	0.000000	152.377048	13.852448	0.008794	0.000000	0.009007	2.6	10.7	13.6
209	-1.807103	-1.807753	0.000000	152.504769	13.842251	0.009521	0.000000	0.009449	3.8	11.0	15.2
210	-1.780695	-1.781346	0.000000	153.230673	13.784580	0.011774	0.000000	0.011648	3.4	7.2	11.2
211	-1.796840	-1.797535	0.000000	153.189645	13.787826	0.007517	0.000000	0.007609	3.4	6.3	10.1
212	-1.800521	-1.801211	0.000000	153.512951	13.762283	0.009504	0.000000	0.009821	3.1	6.3	9.7
213	-1.850980	-1.851660	0.000000	153.545003	13.759756	0.008779	0.000000	0.008897	3.0	6.9	10.3
214	-1.827045	-1.827711	0.000000	153.989080	13.724837	0.008185	0.000000	0.008038	2.7	6.6	9.8
215	-1.754554	-1.755211	0.000000	154.190814	13.709033	0.009837	0.000000	0.009902	2.8	7.3	10.5
216	-1.838793	-1.839482	0.000000	155.010884	13.645160	0.010776	0.000000	0.010468	2.4	7.2	10.1
217	-1.843813	-1.844569	0.000000	155.024908	13.644072	0.009585	0.000000	0.009737	3.0	7.6	11.1
218	-1.820108	-1.820817	0.000000	156.001953	13.568758	0.008533	0.000000	0.008379	2.5	8.4	11.3
219	-1.820098	-1.820801	0.000000	155.938486	13.573625	0.010710	0.000000	0.010954	2.5	7.5	10.4
220	-1.790510	-1.791211	0.000000	156.526172	13.528690	0.010382	0.000000	0.010096	3.1	6.6	10.0
221	-1.809121	-1.809864	0.000000	157.521484	13.453264	0.011095	0.000000	0.011215	2.9	6.6	9.9
222	-1.866500	-1.867225	0.000000	157.494755	13.455278	0.009846	0.000000	0.009758	3.1	6.7	10.3
223	-1.854802	-1.855546	0.000000	158.263535	13.397575	0.010331	0.000000	0.010596	2.6	8.3	11.3
224	-1.831960	-1.832712	0.000000	159.256721	13.323756	0.010000	0.000000	0.009956	3.5	6.7	10.6
225	-1.823103	-1.823833	0.000000	160.254134	13.250438	0.008538	0.000000	0.008686	2.7	6.9	9.9
226	-1.803648	-1.804335	0.000000	161.254021	13.177743	0.008817	0.000000	0.008749	2.6	7.0	9.9
227	-1.805350	-1.806077	0.000000	161.282203	13.175705	0.011007	0.000000	0.011007	2.7	6.6	9.7
228	-1.836085	-1.836827	0.000000	161.760393	13.141231	0.008525	0.000000	0.008904	2.6	7.2	10.3
229	-1.855372	-1.856069	0.000000	161.867543	13.133531	0.009121	0.000000	0.009179	2.6	6.2	9.2
230	-1.833783	-1.834469	0.000000	162.623320	13.079475	0.008574	0.000000	0.008550	2.9	6.4	9.6
231	-1.832168	-1.832849	0.000000	162.661717	13.076740	0.009139	0.000000	0.009242	3.8	11.2	15.4
232	-1.850061	-1.850760	0.000000	162.602558	13.080954	0.010379	0.000000	0.010532	2.4	6.6	9.3
233	-1.789657	-1.790328	0.000000	163.483490	13.018491	0.011155	0.000000	0.011214	2.4	6.6	9.4
234	-1.826784	-1.827496	0.000000	164.482897	12.948345	0.010402	0.000000	0.010364	2.4	7.2	9.9
235	-1.836376	-1.837063	0.000000	165.210395	12.897758	0.010542	0.000000	0.010485	2.5	6.6	9.5
236	-1.832737	-1.833440	0.000000	165.169789	12.900571	0.012583	0.000000	0.012479	4.0	6.6	11.0
237	-1.775882	-1.776605	0.000000	166.062414	12.839012	0.010879	0.000000	0.011345	2.4	7.1	9.9
238	-1.800319	-1.801002	0.000000	167.053416	12.771353	0.007829	0.000000	0.007946	3.4	6.5	10.3
239	-1.868816	-1.869512	0.000000	168.015442	12.706351	0.009369	0.000000	0.009612	3.9	6.9	11.1
240	-1.804693	-1.805354	0.000000	167.987469	12.708232	0.007489	0.000000	0.007248	3.2	6.9	10.4
241	-1.831988	-1.832668	0.000000	167.918099	12.712898	0.012900	0.000000	0.012811	2.5	6.4	9.3
242	-1.804040	-1.804761	0.000000	168.756358	12.656738	0.011022	0.000000	0.011239	3.1	6.8	10.2
243	-1.840159	-1.840843	0.000000	168.915840	12.646110	0.009504	0.000000	0.009297	2.6	7.7	10.6
244	-1.808756	-1.809442	0.000000	168.955515	12.643469	0.011828	0.000000	0.011945	2.4	6.5	9.2
245	-1.808423	-1.809133	0.000000	169.400328	12.613931	0.008878	0.000000	0.008603	2.6	7.7	10.7
246	-1.853351	-1.854108	0.000000	170.185951	12.562098	0.007873	0.000000	0.007810	2.5	7.9	10.8
247	-1.832929	-1.833649	0.000000	170.175550	12.562781	0.009568	0.000000	0.009960	3.2	7.3	11.1
248	-1.805233	-1.805905	0.000000	170.383941	12.549102	0.009808	0.000000	0.009736	3.3	7.6	11.3
249	-1.804279	-1.804971	0.000000	170.359277	12.550719	0.008845	0.000000	0.008857	5.2	11.6	17.1
250	-1.771942	-1.772652	0.000000	170.598451	12.535052	0.010361	0.000000	0.010472	4.1	10.0	14.4
251	-1.855494	-1.856187	0.000000	170.979322	12.510184	0.011263	0.000000	0.011176	13.7	14.6	28.7
252	-1.823091	-1.823791	0.000000	171.976608	12.445532	0.011391	0.000000	0.011441	4.9	12.3	17.6
253	-1.790677	-1.791383	0.000000	172.976540	12.381377	0.009964	0.000000	0.010128	3.4	7.2	11.0
254	-1.839081	-1.839831	0.000000	172.911847	12.385507	0.010430	0.000000	0.010721	4.2	8.4	13.0
255	-1.846762	-1.847473	0.000000	173.834094	12.326881	0.009565	0.000000	0.009598	3.8	7.6	11.9
