1:ItNr	2:Metric	3a:Time	3b:StepSize	4:||Gradient||	Time[ms]
0	-0.344934	0.000000	11.275532	0.019549	95.7
1	-0.364919	0.000000	11.275532	0.019903	2.1
2	-0.384041	0.000000	11.275532	0.009677	2.0
3	-0.342150	0.991183	10.767323	0.021719	2.6
4	-0.320237	1.734600	10.415234	0.065164	2.1
5	-0.347163	2.734600	9.976413	0.014659	2.0
6	-0.350501	1.984436	10.302022	0.013222	2.1
7	-0.371329	2.591591	10.036889	0.031026	3.5
8	-0.342039	3.591305	9.628858	0.027026	2.2
9	-0.346667	2.840495	9.932100	0.018537	1.9
10	-0.342165	2.089818	10.255004	0.011366	2.0
11	-0.330100	2.862405	9.922980	0.009255	2.2
12	-0.319113	2.918157	9.899850	0.007385	1.8
13	-0.334524	2.603788	10.031702	0.014139	2.0
14	-0.378252	2.966268	9.879977	0.019370	2.3
15	-0.318187	3.964615	9.484872	0.015736	2.4
16	-0.372745	4.960742	9.120932	0.012989	2.1
17	-0.317055	5.439746	8.955690	0.021099	2.0
18	-0.351233	4.689116	9.217373	0.009219	2.2
19	-0.339974	5.152891	9.053920	0.008512	2.1
20	-0.385200	5.806666	8.833108	0.016636	2.0
21	-0.380346	6.550686	8.594565	0.025859	2.6
22	-0.321868	5.800251	8.835222	0.008484	2.3
23	-0.360291	5.384102	8.974578	0.018281	2.2
24	-0.343598	4.782666	9.183929	0.013029	2.1
25	-0.342130	4.033963	9.458597	0.013622	2.1
26	-0.305421	4.750471	9.195411	0.014066	1.9
27	-0.324378	4.032221	9.459256	0.013762	2.0
28	-0.333030	5.007453	9.104550	0.022004	2.3
29	-0.344909	4.413106	9.317483	0.011262	2.2
30	-0.350366	5.226950	9.028353	0.036095	2.0
31	-0.383988	5.705036	8.866724	0.014246	2.2
32	-0.327786	4.954588	9.123095	0.014153	2.2
33	-0.358669	5.925825	8.794017	0.010331	1.8
34	-0.350648	5.278059	9.010794	0.016783	2.0
35	-0.385451	5.458811	8.949237	0.014381	2.0
36	-0.344773	5.835955	8.823467	0.014933	2.1
37	-0.344508	6.140781	8.724368	0.015851	2.2
38	-0.332555	5.690240	8.871639	0.014815	2.1
39	-0.330388	6.533484	8.599935	0.017503	1.8
40	-0.344776	6.202680	8.704516	0.018550	2.2
41	-0.340119	6.310734	8.670077	0.020739	2.2
42	-0.322981	7.190661	8.399454	0.011223	2.0
43	-0.338654	8.096228	8.138037	0.013697	2.6
44	-0.352932	8.827011	7.938649	0.021819	2.7
45	-0.378697	8.076572	8.143538	0.020517	2.6
46	-0.364593	9.076212	7.872872	0.009980	2.2
47	-0.364249	8.329816	8.073224	0.006860	2.1
48	-0.362517	8.389211	8.056908	0.017760	2.0
49	-0.363000	7.801421	8.221336	0.012128	2.4
50	-0.341955	8.760658	7.956349	0.012393	2.1
51	-0.356344	8.755139	7.957824	0.015458	2.0
52	-0.319132	9.648724	7.725808	0.025954	2.2
53	-0.353714	10.647017	7.482101	0.017331	2.2
54	-0.351227	9.896212	7.663922	0.010151	2.0
55	-0.336039	9.151298	7.853266	0.019989	2.5
56	-0.344787	8.596449	8.000493	0.014479	2.2
57	-0.380209	7.858765	8.205000	0.027840	2.1
58	-0.343581	8.858721	7.930218	0.020997	2.1
59	-0.335225	9.830029	7.680375	0.005452	1.8
60	-0.356696	9.886685	7.666286	0.020418	1.9
61	-0.329761	9.217374	7.836094	0.021131	2.1
62	-0.333350	10.195198	7.590469	0.018072	2.3
63	-0.342231	11.195009	7.354748	0.008876	2.1
64	-0.346905	10.622955	7.487794	0.010662	2.2
65	-0.345447	10.042614	7.627778	0.005736	2.0
66	-0.366386	9.513869	7.759953	0.011974	2.1
67	-0.367841	9.992774	7.640045	0.021531	2.0
68	-0.332728	9.244682	7.829018	0.014606	2.0
69	-0.336605	10.015898	7.634348	0.019489	2.2
70	-0.339501	9.266493	7.823377	0.009337	1.9
71	-0.340444	8.521683	8.020755	0.017991	2.0
72	-0.371767	9.479283	7.768758	0.021528	2.0
73	-0.344122	8.921658	7.913538	0.014230	2.0
74	-0.341310	9.863641	7.672010	0.006593	2.1
75	-0.348068	9.275463	7.821059	0.019550	1.9
76	-0.372930	8.593263	8.001354	0.018090	2.0
77	-0.360909	9.574786	7.744491	0.021662	2.1
78	-0.349064	10.574514	7.499282	0.009133	2.1
79	-0.340197	11.248392	7.342573	0.026555	2.1
80	-0.341762	12.043990	7.165786	0.026063	2.0
81	-0.328197	11.293180	7.332389	0.013316	1.9
82	-0.311868	12.292866	7.112220	0.006324	1.9
83	-0.356343	11.801035	7.218863	0.025151	2.1
84	-0.341116	11.109501	7.374334	0.034287	2.3
85	-0.342182	12.109501	7.151608	0.033597	2.0
86	-0.324159	13.109501	6.941942	0.012206	2.1
87	-0.303540	13.780774	6.807962	0.031133	2.2
88	-0.333812	14.772741	6.619179	0.012541	2.3
89	-0.335974	15.762984	6.440886	0.008569	2.1
90	-0.342284	15.126960	6.554279	0.020891	1.9
91	-0.343503	14.380034	6.692650	0.017284	2.0
92	-0.352274	14.106995	6.744701	0.020286	2.0
93	-0.315319	15.106663	6.557963	0.017908	2.2
94	-0.341900	16.106655	6.381232	0.016404	1.9
95	-0.332253	15.621023	6.465853	0.009185	2.0
96	-0.343495	16.018730	6.396388	0.011684	2.1
97	-0.352866	15.408193	6.503651	0.011987	2.1
98	-0.356999	15.363687	6.511611	0.026156	2.5
99	-0.362050	15.140232	6.551872	0.023332	2.0
100	-0.344870	16.140232	6.375463	0.025925	2.2
101	-0.367573	17.140232	6.208305	0.010873	2.1
102	-0.359011	16.771025	6.268990	0.007167	2.0
103	-0.351614	17.069230	6.219883	0.025861	2.0
104	-0.371615	18.039413	6.065311	0.014628	1.8
105	-0.372396	17.288624	6.184243	0.018886	2.4
106	-0.334952	17.153595	6.206130	0.015250	2.2
107	-0.357243	18.153173	6.047688	0.033771	2.1
108	-0.349887	19.151780	5.897277	0.010931	2.0
109	-0.315215	20.151764	5.753974	0.008613	1.8
110	-0.342155	20.759076	5.670292	0.011174	1.9
111	-0.350689	21.381632	5.587000	0.008346	1.8
112	-0.352298	22.291897	5.469526	0.014225	2.3
113	-0.331613	23.205753	5.356456	0.010071	2.2
114	-0.314640	22.534508	5.439046	0.026515	2.0
115	-0.351095	21.787094	5.534056	0.020107	2.0
116	-0.353534	21.037087	5.632792	0.023167	2.0
117	-0.345650	20.286278	5.735227	0.014746	1.9
118	-0.349729	21.283382	5.599982	0.025512	2.1
119	-0.349690	21.645166	5.552474	0.027704	2.2
120	-0.331577	22.645164	5.425256	0.013297	2.0
121	-0.367118	22.622048	5.428131	0.017697	1.9
122	-0.359377	21.925091	5.516265	0.015508	2.0
123	-0.347203	21.176729	5.614143	0.010917	2.7
124	-0.348669	21.565679	5.562843	0.022600	2.5
125	-0.346852	20.822118	5.661745	0.018578	2.1
126	-0.355286	21.821580	5.529599	0.010980	2.2
127	-0.349506	22.774962	5.409169	0.023720	2.1
128	-0.357235	22.178240	5.483924	0.004169	1.9
129	-0.371047	21.988420	5.508138	0.014869	2.1
130	-0.329444	22.686822	5.420082	0.020544	1.9
131	-0.320964	23.686272	5.298857	0.015347	2.1
132	-0.345329	23.025994	5.378327	0.016574	2.2
133	-0.342128	24.016532	5.259982	0.012332	2.0
134	-0.391621	23.375229	5.335999	0.015701	2.5
135	-0.352392	22.714016	5.416711	0.028983	2.1
136	-0.327831	23.702652	5.296916	0.017397	2.3
137	-0.345510	22.951842	5.387400	0.005937	2.1
138	-0.366206	23.498338	5.321236	0.007666	2.0
139	-0.350527	23.774704	5.288392	0.021483	2.1
140	-0.358597	23.100128	5.369285	0.015006	2.4
141	-0.340303	24.079505	5.252635	0.014390	2.0
142	-0.340640	25.031553	5.143997	0.015559	2.0
143	-0.321306	25.901437	5.048591	0.017591	2.0
144	-0.346313	26.900982	4.943243	0.021534	2.0
145	-0.376045	26.983378	4.934754	0.032698	2.0
146	-0.367138	26.232569	5.013197	0.017523	2.0
147	-0.351855	27.232553	4.909261	0.012494	2.0
148	-0.366562	27.465996	4.885614	0.012460	1.9
149	-0.348267	27.843565	4.847848	0.009082	2.4
150	-0.354012	28.732006	4.761243	0.015466	2.0
151	-0.345463	29.512941	4.687634	0.024949	2.0
152	-0.355484	30.512916	4.596637	0.012716	2.0
153	-0.345824	30.696578	4.580306	0.018573	2.0
154	-0.327156	30.420394	4.604908	0.008174	2.0
155	-0.345584	30.135618	4.630553	0.015487	2.7
156	-0.398301	30.338451	4.612258	0.018273	2.0
157	-0.338863	29.591551	4.680350	0.019791	2.2
158	-0.348943	28.840969	4.750834	0.019440	2.1
159	-0.356282	28.092367	4.823279	0.015816	2.0
160	-0.337910	27.341660	4.898180	0.013278	2.0
161	-0.341135	27.527988	4.879373	0.021701	2.1
162	-0.347602	27.991653	4.833194	0.008186	2.2
163	-0.329481	27.277097	4.904731	0.035818	1.8
164	-0.343168	28.276319	4.805273	0.012797	2.2
165	-0.371685	29.169288	4.719743	0.022877	1.9
166	-0.337837	28.510950	4.782501	0.033555	1.9
167	-0.358483	27.760141	4.856142	0.010323	2.1
168	-0.356914	27.076160	4.925231	0.012118	2.2
169	-0.348847	27.997959	4.832572	0.019665	2.0
170	-0.369417	27.249033	4.907584	0.021957	2.2
171	-0.367347	28.249032	4.807936	0.006916	2.0
172	-0.347491	27.565850	4.875569	0.034584	2.1
173	-0.347440	26.951474	4.938037	0.014917	2.0
174	-0.352879	27.951474	4.837161	0.023086	2.0
175	-0.350899	28.948146	4.740640	0.013425	2.0
176	-0.360949	28.200533	4.812675	0.016222	2.5
177	-0.339148	27.451968	4.887029	0.020327	2.1
178	-0.322666	26.701469	4.963918	0.031646	2.0
179	-0.349079	27.671198	4.865016	0.018924	2.2
180	-0.329502	26.920436	4.941236	0.017273	2.2
181	-0.364554	26.170294	5.019815	0.013752	2.0
182	-0.320227	25.497347	5.092466	0.032646	2.0
183	-0.354809	24.746539	5.176046	0.019719	2.2
184	-0.367059	25.746522	5.065322	0.011311	2.2
185	-0.370066	26.409180	4.994522	0.029235	2.1
186	-0.369072	27.388598	4.893429	0.012896	2.1
187	-0.337752	26.637824	4.970550	0.013572	2.1
188	-0.346103	26.021405	5.035710	0.016488	2.0
189	-0.355030	26.469076	4.988220	0.008422	2.0
190	-0.330938	26.993436	4.933720	0.018238	2.2
191	-0.364101	26.356286	5.000100	0.010777	2.0
192	-0.339785	25.611599	5.079984	0.012597	2.1
193	-0.378887	25.932184	5.045283	0.010007	2.4
194	-0.379885	26.814925	4.952139	0.010112	2.1
195	-0.335944	26.438288	4.991457	0.019267	2.0
196	-0.363059	26.981848	4.934911	0.018242	2.2
197	-0.344687	26.240066	5.012401	0.014387	2.4
198	-0.337510	25.493882	5.092846	0.019298	2.2
199	-0.348894	24.745443	5.176170	0.021764	1.9
200	-0.347016	23.994639	5.262542	0.017779	2.0
201	-0.353224	23.245001	5.351705	0.017406	2.2
202	-0.365048	22.574740	5.434024	0.012151	2.0
203	-0.324958	23.556337	5.314310	0.009207	2.1
204	-0.368812	22.914977	5.391923	0.015724	2.9
205	-0.351371	22.503761	5.442890	0.021186	2.1
206	-0.356502	23.404770	5.332449	0.018543	2.0
207	-0.345780	24.374958	5.218433	0.033545	2.1
208	-0.327628	25.374101	5.106000	0.011618	1.9
209	-0.337422	25.096589	5.136740	0.010174	2.2
210	-0.351032	25.021758	5.145092	0.013253	2.3
211	-0.338349	25.846396	5.054523	0.017583	2.0
212	-0.351739	25.183925	5.127026	0.021752	2.0
213	-0.369073	24.433182	5.211745	0.025011	2.1
214	-0.318680	25.433180	5.099504	0.029023	2.2
215	-0.358275	26.388448	4.996707	0.014599	1.8
216	-0.357384	27.386692	4.893622	0.029499	2.0
217	-0.330445	26.756627	4.958185	0.017686	2.7
218	-0.360493	27.756559	4.856499	0.015753	2.8
219	-0.341008	28.746403	4.759865	0.011111	2.0
220	-0.352370	28.138529	4.818748	0.019835	2.1
221	-0.313214	27.572009	4.874951	0.015378	2.2
222	-0.356549	28.405382	4.792720	0.025660	2.0
223	-0.364007	27.654576	4.866678	0.010344	1.9
224	-0.344286	26.948640	4.938329	0.014592	2.0
225	-0.318483	27.878340	4.844399	0.007825	1.9
226	-0.354171	27.441993	4.888035	0.010513	2.1
227	-0.382567	27.675813	4.864555	0.013994	2.2
228	-0.350771	28.356686	4.797449	0.012285	2.1
229	-0.335347	27.678837	4.864253	0.018877	2.0
230	-0.337035	26.930252	4.940224	0.023149	2.2
231	-0.323115	26.179443	5.018842	0.022927	2.2
232	-0.358497	25.595909	5.081694	0.028669	2.8
233	-0.368561	26.595086	4.975013	0.013800	2.0
234	-0.359295	25.845387	5.054632	0.013541	1.9
235	-0.343674	26.835105	4.950050	0.016629	2.0
236	-0.355332	26.182612	5.018505	0.012955	2.0
237	-0.354761	25.432897	5.099535	0.016795	2.1
238	-0.348548	26.353316	5.000414	0.012440	1.8
239	-0.340971	26.671321	4.967057	0.029953	2.2
240	-0.353866	27.614200	4.870720	0.015940	2.3
241	-0.335766	28.613079	4.772656	0.011732	2.0
242	-0.362091	27.868011	4.845423	0.018245	2.0
243	-0.323816	27.120478	4.920695	0.011286	2.1
244	-0.352200	26.387999	4.996754	0.016357	2.1
245	-0.320515	27.374686	4.894836	0.011634	2.1
246	-0.355505	27.082665	4.924564	0.008132	2.6
247	-0.349283	26.435970	4.991701	0.010274	2.1
248	-0.366431	25.792775	5.060315	0.017270	2.2
249	-0.345790	25.108568	5.135405	0.012069	2.0
250	-0.336961	25.945727	5.043828	0.017158	2.0
251	-0.314377	26.942711	4.938940	0.023686	1.8
252	-0.365878	27.942687	4.838030	0.029012	4.1
253	-0.345327	27.191877	4.913404	0.017449	2.2
254	-0.347548	27.711307	4.861010	0.012066	2.0
255	-0.349226	28.014443	4.830947	0.018768	2.1
